19:30:00	0
19:45:00	
20:00:00	0
06:00:00	0
06:15:00	0
06:30:00	
06:45:00	0
07:00:00	0
07:30:00	0
07:45:00	
08:00:00	
08:30:00	0
08:45:00	0
09:00:00	0
09:15:00	
09:30:00	
10:00:00	0
10:15:00	0
10:30:00	0
10:45:00	0
11:00:00	0
11:15:00	0
11:45:00	0
12:00:00	0
12:15:00	0
12:30:00	0
12:45:00	0
13:00:00	0
13:15:00	0
13:30:00	0
13:45:00	0
14:15:00	0
14:30:00	0
14:45:00	0
15:00:00	0
15:15:00	0
15:30:00	0
16:00:00	0
16:15:00	0
16:30:00	0
17:30:00	0
17:45:00	0
18:00:00	0
18:15:00	0
18:30:00	0
19:00:00	
