20:00:00	0
06:15:00	0
06:45:00	
07:00:00	0
07:15:00	0
07:30:00	0
07:45:00	0
08:00:00	0
08:15:00	0
08:30:00	0
09:00:00	0
09:45:00	0
10:15:00	0
10:45:00	0
11:00:00	0
12:00:00	0
12:30:00	0
12:45:00	0
13:00:00	0
13:30:00	0
13:45:00	0
14:00:00	0
14:15:00	0
14:45:00	0
15:45:00	0
16:15:00	0
16:45:00	0
17:00:00	0
17:30:00	0
18:30:00	0
18:45:00	0
19:00:00	
20:00:00	0
20:30:00	0
20:45:00	0
21:00:00	0
