17:00:00	1
05:00:00	0
05:15:00	0
05:30:00	0
05:45:00	0
06:00:00	0
06:15:00	
06:30:00	
06:45:00	0
07:00:00	1
07:15:00	1
07:30:00	1
07:45:00	1
08:00:00	1
08:15:00	1
08:30:00	1
08:45:00	2
09:00:00	2
09:30:00	4
09:45:00	4
10:00:00	4
10:15:00	5
10:30:00	6
10:45:00	6
11:15:00	7
11:45:00	8
12:00:00	8
12:15:00	6
12:30:00	6
12:45:00	5
13:00:00	5
13:15:00	5
13:30:00	5
13:45:00	4
14:00:00	5
14:15:00	3
14:30:00	3
14:45:00	3
15:00:00	3
15:15:00	2
15:30:00	2
15:45:00	1
16:00:00	1
16:15:00	1
16:30:00	1
16:45:00	1
17:00:00	1
