20:30:00	0
06:00:00	0
06:15:00	0
06:30:00	
06:45:00	0
07:00:00	0
07:30:00	0
08:15:00	0
08:30:00	0
08:45:00	0
09:15:00	
09:30:00	0
09:45:00	0
10:15:00	0
10:30:00	0
10:45:00	0
11:15:00	0
11:30:00	0
12:00:00	
12:15:00	0
12:30:00	0
13:00:00	0
13:15:00	
13:30:00	0
13:45:00	0
