18:45:00	0
07:30:00	0
08:00:00	
08:30:00	
08:45:00	
09:00:00	
11:30:00	0
11:45:00	
12:00:00	0
12:15:00	0
12:30:00	0
12:45:00	0
13:15:00	0
13:30:00	0
13:45:00	0
14:00:00	0
15:15:00	0
15:30:00	0
15:45:00	
16:00:00	0
16:15:00	0
16:30:00	0
16:45:00	0
17:00:00	0
17:30:00	0
17:45:00	0
18:15:00	0
19:30:00	0
19:45:00	0
20:15:00	0
20:30:00	0
