21:50:40	1022	0	-999.0	-999.0	128.3
21:50:45	1023	0	-999.0	-999.0	130.8
21:50:50	1023	0	-999.0	-999.0	137.4
21:50:55	1023	0	-999.0	-999.0	137.4
21:51:00	1022	0	-999.0	-999.0	147.4
21:51:05	1023	0	-999.0	-999.0	132.4
21:51:10	1023	0	-999.0	-999.0	129.9
21:51:15	1022	0	-999.0	-999.0	126.6
21:51:20	1023	0	-999.0	-999.0	133.3
21:51:25	1023	0	-999.0	-999.0	137.4
21:51:30	1022	0	-999.0	-999.0	134.9
21:51:35	1023	0	-999.0	-999.0	143.2
21:51:40	1022	0	-999.0	-999.0	147.4
21:51:45	1023	0	-999.0	-999.0	149.9
21:51:50	1023	0	-999.0	-999.0	145.7
21:51:55	1023	0	-999.0	-999.0	138.2
21:52:00	1023	0	-999.0	-999.0	138.2
21:52:05	1022	0	-999.0	-999.0	136.6
21:52:10	1023	0	-999.0	-999.0	138.2
21:52:15	1023	0	-999.0	-999.0	139.1
21:52:20	1023	0	-999.0	-999.0	147.4
21:52:25	1023	0	-999.0	-999.0	138.2
21:52:30	1023	0	-999.0	-999.0	129.9
21:52:35	1023	0	-999.0	-999.0	130.8
21:52:40	1023	0	-999.0	-999.0	123.3
21:52:45	1022	0	-999.0	-999.0	134.9
21:52:50	1023	0	-999.0	-999.0	136.6
21:52:55	1023	0	-999.0	-999.0	143.2
21:53:00	1023	0	-999.0	-999.0	139.9
21:53:05	1023	0	-999.0	-999.0	130.8
21:53:10	1023	0	-999.0	-999.0	130.8
21:53:15	1023	0	-999.0	-999.0	129.9
21:53:20	1022	0	-999.0	-999.0	128.3
21:53:25	1022	0	-999.0	-999.0	117.5
21:53:30	1023	0	-999.0	-999.0	130.8
21:53:35	1022	0	-999.0	-999.0	133.3
21:53:40	1023	0	-999.0	-999.0	136.6
21:53:45	1023	0	-999.0	-999.0	136.6
21:53:50	1023	0	-999.0	-999.0	137.4
21:53:55	1023	0	-999.0	-999.0	136.6
21:54:00	1023	0	-999.0	-999.0	138.2
21:54:05	1023	0	-999.0	-999.0	124.1
21:54:10	1023	0	-999.0	-999.0	120.0
21:54:15	1023	0	-999.0	-999.0	120.0
21:54:20	1023	0	-999.0	-999.0	118.3
21:54:25	1023	0	-999.0	-999.0	130.8
21:54:30	1022	0	-999.0	-999.0	132.4
21:54:35	1023	0	-999.0	-999.0	131.6
21:54:40	1021	0	-999.0	-999.0	130.8
21:54:45	1023	0	-999.0	-999.0	129.9
21:54:50	1022	0	-999.0	-999.0	129.1
21:54:55	1022	0	-999.0	-999.0	124.1
21:55:00	1023	0	-999.0	-999.0	117.5
21:55:05	1022	0	-999.0	-999.0	135.7
21:55:10	1023	0	-999.0	-999.0	134.9
21:55:15	1022	0	-999.0	-999.0	119.1
21:55:20	1023	0	-999.0	-999.0	131.6
21:55:25	1023	0	-999.0	-999.0	131.6
21:55:30	1023	0	-999.0	-999.0	136.6
21:55:35	1023	0	-999.0	-999.0	137.4
21:55:40	1023	0	-999.0	-999.0	117.5
21:55:45	1023	0	-999.0	-999.0	130.8
21:55:50	1023	0	-999.0	-999.0	130.8
21:55:55	1023	0	-999.0	-999.0	130.8
21:56:00	1022	0	-999.0	-999.0	146.5
21:56:05	1022	0	-999.0	-999.0	142.4
21:56:10	1023	0	-999.0	-999.0	149.0
21:56:15	1022	0	-999.0	-999.0	129.1
21:56:20	1022	0	-999.0	-999.0	128.3
21:56:25	1023	0	-999.0	-999.0	125.8
21:56:30	1023	0	-999.0	-999.0	120.0
21:56:35	1022	0	-999.0	-999.0	124.1
21:56:40	1022	0	-999.0	-999.0	126.6
21:56:45	1023	0	-999.0	-999.0	129.9
21:56:50	1023	0	-999.0	-999.0	141.6
21:56:55	1023	0	-999.0	-999.0	136.6
21:57:00	1023	0	-999.0	-999.0	135.7
21:57:05	1023	0	-999.0	-999.0	139.1
21:57:10	1023	0	-999.0	-999.0	152.3
21:57:15	1023	0	-999.0	-999.0	128.3
21:57:20	1022	0	-999.0	-999.0	128.3
21:57:25	1022	0	-999.0	-999.0	128.3
21:57:30	1023	0	-999.0	-999.0	129.1
21:57:35	1023	0	-999.0	-999.0	133.3
21:57:40	1023	0	-999.0	-999.0	139.9
21:57:45	1023	0	-999.0	-999.0	137.4
21:57:50	1022	0	-999.0	-999.0	134.1
21:57:55	1022	0	-999.0	-999.0	123.3
21:58:00	1023	0	-999.0	-999.0	130.8
21:58:05	1022	0	-999.0	-999.0	128.3
21:58:10	1023	0	-999.0	-999.0	130.8
21:58:15	1023	0	-999.0	-999.0	130.8
21:58:20	1023	0	-999.0	-999.0	150.7
21:58:25	1023	0	-999.0	-999.0	136.6
21:58:30	1023	0	-999.0	-999.0	136.6
21:58:35	1023	0	-999.0	-999.0	137.4
21:58:40	1023	0	-999.0	-999.0	125.8
21:58:45	1023	0	-999.0	-999.0	129.1
21:58:50	1023	0	-999.0	-999.0	131.6
21:58:55	1023	0	-999.0	-999.0	129.9
21:59:00	1023	0	-999.0	-999.0	130.8
21:59:05	1023	0	-999.0	-999.0	129.1
21:59:10	1022	0	-999.0	-999.0	129.9
21:59:15	1023	0	-999.0	-999.0	138.2
21:59:20	1022	0	-999.0	-999.0	134.9
21:59:25	1023	0	-999.0	-999.0	137.4
21:59:30	1022	0	-999.0	-999.0	125.0
21:59:35	1023	0	-999.0	-999.0	130.8
21:59:40	1022	0	-999.0	-999.0	129.9
21:59:45	1023	0	-999.0	-999.0	147.4
21:59:50	1023	0	-999.0	-9922:05:50	1023	0	-999.0	-999.0	150.7
22:05:55	1023	0	-999.0	-999.0	130.8
22:06:00	1023	0	-999.0	-999.0	129.9
22:06:05	1023	0	-999.0	-999.0	129.9
22:06:10	1023	0	-999.0	-999.0	129.1
22:06:15	1022	0	-999.0	-999.0	116.7
22:06:20	1023	0	-999.0	-999.0	129.9
22:06:25	1023	0	-999.0	-999.0	137.4
22:06:30	1022	0	-999.0	-999.0	134.9
22:06:35	1023	0	-999.0	-999.0	138.2
22:06:40	1023	0	-999.0	-999.0	120.8
22:06:45	1022	0	-999.0	-999.0	129.9
22:06:50	1023	0	-999.0	-999.0	131.6
22:06:55	1023	0	-999.0	-999.0	130.8
22:07:00	1023	0	-999.0	-999.0	130.8
22:07:05	1022	0	-999.0	-999.0	128.3
22:08:31	1022	0	-999.0	-999.0	159.8
22:08:36	1023	0	-999.0	-999.0	144.9
22:08:41	1023	0	-999.0	-999.0	144.0
22:08:46	1023	0	-999.0	-999.0	152.3
22:08:51	1023	0	-999.0	-999.0	139.9
22:08:56	1023	0	-999.0	-999.0	138.2
22:09:01	1022	0	-999.0	-999.0	139.9
22:09:06	1023	0	-999.0	-999.0	154.0
22:09:11	1023	0	-999.0	-999.0	149.9
22:09:16	1023	0	-999.0	-999.0	141.6
22:09:21	1022	0	-999.0	-999.0	134.1
22:09:26	1023	0	-999.0	-999.0	136.6
22:09:31	1023	0	-999.0	-999.0	136.6
22:09:36	1023	0	-999.0	-999.0	136.6
22:09:41	1023	0	-999.0	-999.0	136.6
22:09:46	1022	0	-999.0	-999.0	136.6
22:09:51	1023	0	-999.0	-999.0	138.2
22:09:56	1023	0	-999.0	-999.0	138.2
22:10:01	1023	0	-999.0	-999.0	125.8
22:10:06	1022	0	-999.0	-999.0	121.6
22:10:11	1023	0	-999.0	-999.0	128.3
22:10:16	1022	0	-999.0	-999.0	129.1
22:10:21	1023	0	-999.0	-999.0	129.9
22:10:26	1023	0	-999.0	-999.0	130.8
22:10:31	1023	0	-999.0	-999.0	127.4
22:10:36	1022	0	-999.0	-999.0	116.7
22:10:41	1022	0	-999.0	-999.0	130.8
22:10:46	1022	0	-999.0	-999.0	125.0
22:10:51	1022	0	-999.0	-999.0	123.3
22:12:19	1023	0	-999.0	-999.0	144.9
22:12:24	1023	0	-999.0	-999.0	133.3
22:12:29	1022	0	-999.0	-999.0	132.4
22:12:34	1023	0	-999.0	-999.0	131.6
22:12:39	1023	0	-999.0	-999.0	136.6
22:12:44	1023	0	-999.0	-999.0	143.2
22:12:49	1022	0	-999.0	-999.0	148.2
22:12:54	1022	0	-999.0	-999.0	139.9
22:12:59	1023	0	-999.0	-999.0	134.9
22:13:04	1023	0	-999.0	-999.0	137.4
22:13:09	1022	0	-999.0	-999.0	128.3
22:13:14	1023	0	-999.0	-999.0	124.1
22:13:19	1023	0	-999.0	-999.0	131.6
22:13:24	1023	0	-999.0	-999.0	130.8
22:50:22	1022	0	-999.0	-999.0	154.8
22:50:27	1023	0	-999.0	-999.0	145.7
22:50:33	1023	0	-999.0	-999.0	147.4
22:50:39	1022	0	-999.0	-999.0	148.2
22:50:44	1023	0	-999.0	-999.0	149.0
22:50:50	1023	0	-999.0	-999.0	144.0
22:50:55	1023	0	-999.0	-999.0	139.9
22:51:01	1022	0	-999.0	-999.0	139.1
22:51:07	1023	0	-999.0	-999.0	139.1
22:51:12	1023	0	-999.0	-999.0	119.1
22:51:18	1023	0	-999.0	-999.0	132.4
22:51:24	1023	0	-999.0	-999.0	132.4
22:51:29	1022	0	-999.0	-999.0	129.9
22:51:35	1022	0	-999.0	-999.0	129.9
22:51:41	1023	0	-999.0	-999.0	129.1
22:51:46	1023	0	-999.0	-999.0	129.1
22:51:52	1023	0	-999.0	-999.0	118.3
22:51:57	1023	0	-999.0	-999.0	120.8
22:52:03	1023	0	-999.0	-999.0	127.4
22:52:09	1022	0	-999.0	-999.0	129.9
22:52:14	1023	0	-999.0	-999.0	131.6
22:52:20	1022	0	-999.0	-999.0	128.3
22:52:26	1023	0	-999.0	-999.0	130.8
22:52:31	1023	0	-999.0	-999.0	128.3
22:52:37	1023	0	-999.0	-999.0	131.6
22:52:42	1023	0	-999.0	-999.0	131.6
22:52:48	1023	0	-999.0	-999.0	151.5
22:52:54	1023	0	-999.0	-999.0	139.9
22:52:59	1023	0	-999.0	-999.0	138.2
22:53:05	1023	0	-999.0	-999.0	136.6
22:53:11	1022	0	-999.0	-999.0	118.3
22:53:16	1023	0	-999.0	-999.0	120.0
22:53:22	1023	0	-999.0	-999.0	138.2
22:53:27	1023	0	-999.0	-999.0	140.7
22:53:33	1023	0	-999.0	-999.0	139.1
22:53:39	1023	0	-999.0	-999.0	139.1
22:53:44	1022	0	-999.0	-999.0	139.1
22:53:50	1022	0	-999.0	-999.0	125.0
22:53:56	1023	0	-999.0	-999.0	133.3
22:54:01	1020	0	-999.0	-999.0	129.9
22:54:07	1023	0	-999.0	-999.0	142.4
22:54:12	1022	0	-999.0	-999.0	138.2
22:54:18	1023	0	-999.0	-999.0	138.2
22:54:24	1023	0	-999.0	-999.0	139.9
22:54:29	1023	0	-999.0	-999.0	129.9
22:54:35	1023	0	-999.0	-999.0	128.3
22:54:40	1023	0	-999.0	-999.0	132.4
22:54:46	1023	0	-999.0	-999.0	132.4
22:54:52	1022	0	-999.0	-999.0	129.9
22:54:57	1023	0	-999.0	-999.0	138.2
22:55:03	1022	0	-999.0	-999.0	146.5
22:55:09	1023	0	-999.0	-999.0	139.1
22:55:14	1022	0	-999.0	-999.0	136.6
22:55:15	1023	0	-999.0	-999.0	139.1
22:55:15	1023	0	-999.0	-999.0	118.3
22:55:16	1023	0	-999.0	-999.0	132.4
22:55:17	1023	0	-999.0	-999.0	154.0
22:55:17	1023	0	-999.0	-999.0	137.4
22:55:18	1022	0	-999.0	-999.0	129.9
22:55:18	1023	0	-999.0	-999.0	148.2
22:55:21	1023	0	-999.0	-999.0	137.4
22:55:26	1023	0	-999.0	-999.0	137.4
22:55:31	1022	0	-999.0	-999.0	126.6
22:55:36	1023	0	-999.0	-999.0	132.4
22:55:42	1022	0	-999.0	-999.0	163.1
22:55:47	1023	0	-999.0	-999.0	139.1
22:55:52	1022	0	-999.0	-999.0	116.7
22:55:57	1023	0	-999.0	-999.0	133.3
22:56:02	1022	0	-999.0	-999.0	129.9
22:56:07	1022	0	-999.0	-999.0	151.5
22:56:12	1022	0	-999.0	-999.0	136.6
22:56:17	1023	0	-999.0	-999.0	138.2
22:56:22	1023	0	-999.0	-999.0	132.4
22:56:27	1022	0	-999.0	-999.0	129.9
22:56:32	1023	0	-999.0	-999.0	141.6
22:56:37	1023	0	-999.0	-999.0	139.1
22:56:42	1023	0	-999.0	-999.0	130.8
22:58:11	1023	0	-999.0	-999.0	145.7
22:58:16	1023	0	-999.0	-999.0	135.7
22:58:21	1023	0	-999.0	-999.0	132.4
22:58:26	1023	0	-999.0	-999.0	131.6
22:58:31	1023	0	-999.0	-999.0	149.0
22:58:36	1023	0	-999.0	-999.0	137.4
22:58:41	1022	0	-999.0	-999.0	136.6
22:58:46	1023	0	-999.0	-999.0	128.3
22:58:51	1023	0	-999.0	-999.0	125.0
22:58:56	1023	0	-999.0	-999.0	133.3
22:59:01	1022	0	-999.0	-999.0	132.4
22:59:06	1023	0	-999.0	-999.0	138.2
22:59:11	1023	0	-999.0	-999.0	138.2
22:59:16	1023	0	-999.0	-999.0	135.7
22:59:21	1022	0	-999.0	-999.0	125.0
22:59:26	1022	0	-999.0	-999.0	129.9
22:59:31	1023	0	-999.0	-999.0	134.1
22:59:36	1023	0	-999.0	-999.0	144.0
22:59:41	1023	0	-999.0	-999.0	137.4
22:59:46	1022	0	-999.0	-999.0	139.1
22:59:51	1022	0	-999.0	-999.0	139.1
22:59:56	1023	0	-999.0	-999.0	134.9
23:00:01	1023	0	-999.0	-999.0	130.8
23:00:06	1023	0	-999.0	-999.0	123.3
23:00:11	1022	0	-999.0	-999.0	125.0
23:00:16	1023	0	-999.0	-999.0	132.4
23:00:21	1023	0	-999.0	-999.0	132.4
23:00:26	1021	0	-999.0	-999.0	130.8
23:00:31	1022	0	-999.0	-999.0	128.3
23:00:36	1022	0	-999.0	-999.0	121.6
23:00:41	1023	0	-999.0	-999.0	131.6
23:00:46	1023	0	-999.0	-999.0	137.4
23:00:51	1023	0	-999.0	-999.0	137.4
23:00:56	1022	0	-999.0	-999.0	129.9
23:01:01	1023	0	-999.0	-999.0	130.8
23:01:06	1023	0	-999.0	-999.0	145.7
23:01:11	1023	0	-999.0	-999.0	137.4
23:01:16	1022	0	-999.0	-999.0	139.1
23:01:21	1023	0	-999.0	-999.0	119.1
23:01:26	1023	0	-999.0	-999.0	132.4
23:01:31	1023	0	-999.0	-999.0	133.3
23:01:36	1023	0	-999.0	-999.0	134.1
23:01:41	1023	0	-999.0	-999.0	130.8
23:01:46	1023	0	-999.0	-999.0	129.9
23:01:51	1023	0	-999.0	-999.0	130.8
23:01:56	1022	0	-999.0	-999.0	127.4
23:02:01	1023	0	-999.0	-999.0	131.6
23:02:06	1023	0	-999.0	-999.0	130.8
23:02:11	1023	0	-999.0	-999.0	130.8
23:02:16	1023	0	-999.0	-999.0	131.6
23:02:21	1022	0	-999.0	-999.0	149.9
23:02:26	1023	0	-999.0	-999.0	140.7
23:02:31	1023	0	-999.0	-999.0	138.2
23:02:36	1022	0	-999.0	-999.0	136.6
23:02:41	1023	0	-999.0	-999.0	140.7
23:02:46	1022	0	-999.0	-999.0	139.9
23:02:51	1022	0	-999.0	-999.0	132.4
23:02:56	1023	0	-999.0	-999.0	142.4
23:03:01	1023	0	-999.0	-999.0	139.1
23:03:06	1022	0	-999.0	-999.0	139.1
23:03:11	1023	0	-999.0	-999.0	134.9
23:03:16	1023	0	-999.0	-999.0	129.1
23:03:21	1023	0	-999.0	-999.0	134.1
23:03:26	1023	0	-999.0	-999.0	134.1
23:03:31	1023	0	-999.0	-999.0	142.4
23:03:36	1023	0	-999.0	-999.0	144.0
23:03:41	1023	0	-999.0	-999.0	139.9
23:03:46	1023	0	-999.0	-999.0	140.7
23:03:51	Te trro	1023	0	-999.0	-999.0
23:03:56	1022	0	-999.0	-999.0	124.1
23:04:23	1023	0	-999.0	-999.0	148.2
23:04:28	1023	0	-999.0	-999.0	134.1
23:07:15	1022	0	-999.0	-999.0	149.9
23:07:32	1023	0	-999.0	-999.0	159.8
23:07:37	1022	0	-999.0	-999.0	134.9
23:07:42	1023	0	-999.0	-999.0	139.9
23:07:47	1023	0	-999.0	-999.0	152.3
23:07:52	1022	0	-999.0	-999.0	151.5
23:07:57	1023	0	-999.0	-999.0	144.0
23:08:02	1022	0	-999.0	-999.0	131.6
23:08:07	1023	0	-999.0	-999.0	133.3
23:08:12	1022	0	-999.0	-999.0	133.3
23:08:17	1023	0	-999.0	-999.0	131.6
23:09:45	1023	0	-999.0	-999.0	141.6
23:09:50	1022	0	-999.0	-999.0	143.2
23:09:55	1023	0	-999.0	-999.0	144.0
23:10:00	1023	0	-999.0	-999.0	145.7
23:10:05	1023	0	-999.0	-999.0	153.2
23:10:10	1023	0	-999.0	-999.0	134.1
23:10:15	1023	0	-999.0	-999.0	135.7
23:10:20	1023	0	-999.0	-999.0	132.4
23:10:25	1023	0	-999.0	-999.0	133.3
23:10:30	1023	0	-999.0	-999.0	123.3
23:10:35	1023	0	-999.0	-999.0	140.7
23:10:40	1022	0	-999.0	-999.0	141.6
23:10:45	1023	0	-999.0	-999.0	157.3
23:10:50	1022	0	-999.0	-999.0	133.3
23:10:55	1023	0	-999.0	-999.0	134.1
23:11:00	1023	0	-999.0	-999.0	133.3
23:11:05	1022	0	-999.0	-999.0	129.9
23:11:10	1023	0	-999.0	-999.0	132.4
23:11:15	1023	0	-999.0	-999.0	143.2
23:11:20	1022	0	-999.0	-999.0	132.4
23:11:25	1022	0	-999.0	-999.0	131.6
23:11:30	1022	0	-999.0	-999.0	129.9
23:11:35	1022	0	-999.0	-999.0	120.0
23:11:40	1023	0	-999.0	-999.0	140.7
23:11:45	1023	0	-999.0	-999.0	140.7
23:11:50	1023	0	-999.0	-999.0	146.5
23:11:55	1022	0	-999.0	-999.0	146.5
23:12:00	1023	0	-999.0	-999.0	134.1
23:12:05	1023	0	-999.0	-999.0	133.3
23:12:10	1023	0	-999.0	-999.0	130.8
23:12:15	1022	0	-999.0	-999.0	116.7
23:12:20	1022	0	-999.0	-999.0	129.9
23:12:25	1023	0	-999.0	-999.0	140.7
23:12:30	1023	0	-999.0	-999.0	138.2
23:12:35	1022	0	-999.0	-999.0	144.0
23:12:40	1023	0	-999.0	-999.0	138.2
23:12:45	1023	0	-999.0	-999.0	133.3
23:12:50	1023	0	-999.0	-999.0	134.1
23:12:55	1022	0	-999.0	-999.0	129.9
23:13:00	1023	0	-999.0	-999.0	132.4
23:13:05	1023	0	-999.0	-999.0	131.6
23:13:10	1022	0	-999.0	-999.0	129.9
23:13:15	1023	0	-999.0	-999.0	130.8
23:13:20	1022	0	-999.0	-999.0	129.9
23:13:25	1023	0	-999.0	-999.0	126.6
23:13:30	1022	0	-999.0	-999.0	115.0
23:13:35	1022	0	-999.0	-999.0	123.3
23:13:40	1022	0	-999.0	-999.0	126.6
23:13:45	1023	0	-999.0	-999.0	134.9
23:13:50	1023	0	-999.0	-999.0	123.3
23:13:55	1023	0	-999.0	-999.0	122.5
23:14:00	1023	0	-999.0	-999.0	132.4
23:14:05	1022	0	-999.0	-999.0	131.6
23:14:10	1023	0	-999.0	-999.0	130.8
23:14:15	1023	0	-999.0	-999.0	145.7
23:14:20	1023	0	-999.0	-999.0	150.7
23:14:25	1022	0	-999.0	-999.0	139.1
23:14:30	1023	0	-999.0	-999.0	154.0
23:14:35	1023	0	-999.0	-999.0	130.8
23:14:40	1023	0	-999.0	-999.0	130.8
23:14:45	1023	0	-999.0	-999.0	129.1
23:14:50	1023	0	-999.0	-999.0	136.6
23:14:55	1023	0	-999.0	-999.0	137.4
23:15:00	1023	0	-999.0	-999.0	138.2
23:15:05	1023	0	-999.0	-999.0	134.1
23:15:10	1023	0	-999.0	-999.0	131.6
23:15:15	1023	0	-999.0	-999.0	129.9
23:15:20	1023	0	-999.0	-999.0	131.6
23:15:25	1023	0	-999.0	-999.0	130.8
23:15:30	1023	0	-999.0	-999.0	131.6
23:15:35	1022	0	-999.0	-999.0	129.9
23:15:40	1023	0	-999.0	-999.0	129.9
23:15:45	1023	0	-999.0	-999.0	130.8
23:15:50	1022	0	-999.0	-999.0	126.6
23:15:55	1023	0	-999.0	-999.0	128.3
23:16:00	1023	0	-999.0	-999.0	132.4
23:16:05	1023	0	-999.0	-999.0	150.7
23:16:10	1023	0	-999.0	-999.0	137.4
23:16:15	1022	0	-999.0	-999.0	128.3
23:16:20	1022	0	-999.0	-999.0	129.9
23:16:25	1023	0	-999.0	-999.0	116.7
23:16:30	1023	0	-999.0	-999.0	123.3
23:16:35	1022	0	-999.0	-999.0	120.0
23:16:40	1023	0	-999.0	-999.0	131.6
23:16:45	1022	0	-999.0	-999.0	131.6
23:16:50	1023	0	-999.0	-999.0	138.2
23:16:55	1023	0	-999.0	-999.0	135.7
23:17:00	1023	0	-999.0	-999.0	134.9
23:17:05	1023	0	-999.0	-999.0	119.1
23:17:10	1022	0	-999.0	-999.0	119.1
23:17:15	1023	0	-999.0	-999.0	122.5
23:17:20	1023	0	-999.0	-999.0	127.4
23:17:25	1022	0	-999.0	-999.0	124.1
23:17:30	1022	0	-999.0	-999.0	121.6
23:17:35	1022	0	-999.0	-999.0	136.6
23:17:40	1023	0	-999.0	-999.0	136.6
23:17:45	1023	0	-999.0	-999.0	137.4
23:17:50	1022	0	-999.0	-999.0	116.7
23:17:55	1023	0	-999.0	-999.0	133.3
23:18:00	1022	0	-999.0	-999.0	132.4
23:18:05	1023	0	-999.0	-999.0	131.6
23:18:10	1023	0	-999.0	-999.0	152.3
23:18:15	1023	0	-999.0	-999.0	135.7
23:18:20	1023	0	-999.0	-999.0	138.2
23:18:25	1022	0	-999.0	-999.0	126.6
23:18:30	1023	0	-999.0	-999.0	131.6
23:18:35	1023	0	-999.0	-999.0	130.8
23:18:40	1023	0	-999.0	-999.0	153.2
23:18:45	1023	0	-999.0	-999.0	143.2
23:18:50	1023	0	-999.0	-999.0	138.2
23:18:55	1022	0	-999.0	-999.0	138.2
23:19:00	1023	0	-999.0	-999.0	119.1
23:19:05	1023	0	-999.0	-999.0	134.1
23:19:10	1022	0	-999.0	-999.0	146.5
23:19:15	1023	0	-999.0	-999.0	138.2
23:19:20	1023	0	-999.0	-999.0	134.1
23:19:25	1023	0	-999.0	-999.0	130.8
23:19:30	1023	0	-999.0	-999.0	130.8
23:19:35	1023	0	-999.0	-999.0	132.4
23:19:40	1023	0	-999.0	-999.0	152.3
23:19:45	1022	0	-999.0	-999.0	143.2
23:19:50	1023	0	-999.0	-999.0	139.1
23:19:55	1023	0	-999.0	-999.0	140.7
23:20:00	1023	0	-999.0	-999.0	139.1
23:20:05	1022	0	-999.0	-999.0	129.9
23:20:10	1023	0	-999.0	-999.0	132.4
23:20:15	1023	0	-999.0	-999.0	144.0
23:20:20	1023	0	-999.0	-999.0	139.9
23:20:25	1023	0	-999.0	-999.0	138.2
23:20:30	1022	0	-999.0	-999.0	139.9
23:20:35	1023	0	-999.0	-999.0	140.7
23:20:40	1023	0	-999.0	-999.0	140.7
23:20:45	1023	0	-999.0	-999.0	140.7
23:20:50	1023	0	-999.0	-999.0	129.1
23:20:55	1022	0	-999.0	-999.0	129.9
23:21:00	1023	0	-999.0	-999.0	132.4
23:21:05	1023	0	-999.0	-999.0	129.9
23:21:10	1023	0	-999.0	-999.0	149.9
23:21:15	1022	0	-999.0	-999.0	139.9
23:21:20	1023	0	-999.0	-999.0	139.9
23:21:25	1022	0	-999.0	-999.0	138.2
23:21:30	1023	0	-999.0	-999.0	139.9
23:21:35	1023	0	-999.0	-999.0	135.7
23:21:40	1022	0	-999.0	-999.0	125.0
23:21:45	1023	0	-999.0	-999.0	132.4
23:21:50	1022	0	-999.0	-999.0	129.9
23:21:55	1022	0	-999.0	-999.0	129.9
23:22:00	1023	0	-999.0	-999.0	132.4
23:22:05	1022	0	-999.0	-999.0	144.9
23:22:10	1023	0	-999.0	-999.0	138.2
23:22:15	1023	0	-999.0	-999.0	139.1
23:22:20	1023	0	-999.0	-999.0	125.8
23:22:25	1023	0	-999.0	-999.0	119.1
23:22:30	1023	0	-999.0	-999.0	132.4
23:22:35	1023	0	-999.0	-999.0	132.4
23:22:40	1023	0	-999.0	-999.0	140.7
23:22:45	1022	0	-999.0	-999.0	139.1
23:22:50	1022	0	-999.0	-999.0	136.6
23:22:55	1023	0	-999.0	-999.0	138.2
23:23:00	1023	0	-999.0	-999.0	117.5
23:23:05	1023	0	-999.0	-999.0	131.6
23:23:10	1022	0	-999.0	-999.0	131.6
23:23:15	1023	0	-999.0	-999.0	131.6
23:23:20	1023	0	-999.0	-999.0	131.6
23:23:25	1023	0	-999.0	-999.0	131.6
23:23:30	1023	0	-999.0	-999.0	130.8
23:23:35	1022	0	-999.0	-999.0	129.1
23:23:40	1023	0	-999.0	-999.0	130.8
23:23:45	1022	0	-999.0	-999.0	131.6
23:23:50	1023	0	-999.0	-999.0	130.8
23:23:55	1022	0	-999.0	-999.0	149.9
23:24:00	1023	0	-999.0	-999.0	138.2
23:24:05	1022	0	-999.0	-999.0	129.9
23:24:10	1023	0	-999.0	-999.0	131.6
23:24:15	1023	0	-999.0	-999.0	155.7
23:24:20	1023	0	-999.0	-999.0	140.7
23:24:25	1022	0	-999.0	-999.0	139.9
23:24:30	1023	0	-999.0	-999.0	138.2
23:24:35	1023	0	-999.0	-999.0	134.1
23:24:40	1023	0	-999.0	-999.0	132.4
23:24:45	1022	0	-999.0	-999.0	136.6
23:24:50	1022	0	-999.0	-999.0	140.7
23:24:55	1023	0	-999.0	-999.0	140.7
23:25:00	1022	0	-999.0	-999.0	139.1
23:25:05	1022	0	-999.0	-999.0	144.0
23:25:10	1022	0	-999.0	-999.0	121.6
23:25:15	1023	0	-999.0	-999.0	134.1
23:25:20	1023	0	-999.0	-999.0	134.1
23:25:25	1022	0	-999.0	-999.0	153.2
23:25:30	1022	0	-999.0	-999.0	139.1
23:25:35	1022	0	-999.0	-999.0	139.1
23:25:40	1023	0	-999.0	-999.0	119.1
23:25:45	1023	0	-999.0	-999.0	129.1
23:25:50	1022	0	-999.0	-999.0	131.6
23:25:55	1023	0	-999.0	-999.0	132.4
23:26:00	1023	0	-999.0	-999.0	132.4
23:26:05	1022	0	-999.0	-999.0	128.3
23:26:10	1023	0	-999.0	-999.0	148.2
23:26:15	1022	0	-999.0	-999.0	137.4
23:26:20	1023	0	-999.0	-999.0	119.1
23:26:25	1022	0	-999.0	-999.0	129.9
23:26:30	1023	0	-999.0	-999.0	150.7
23:26:35	1022	0	-999.0	-999.0	138.2
23:26:40	1022	0	-999.0	-999.0	139.1
23:26:45	1023	0	-999.0	-999.0	135.7
23:26:50	1023	0	-999.0	-999.0	117.5
23:26:55	1023	0	-999.0	-999.0	128.3
23:27:00	1023	0	-999.0	-999.0	131.6
23:27:05	1023	0	-999.0	-999.0	130.8
23:27:10	1022	0	-999.0	-999.0	146.5
23:27:15	1022	0	-999.0	-999.0	138.2
23:27:20	1023	0	-999.0	-999.0	137.4
23:27:25	1023	0	-999.0	-999.0	142.4
23:27:30	1023	0	-999.0	-999.0	129.9
23:27:35	1023	0	-999.0	-999.0	131.6
23:27:40	1022	0	-999.0	-999.0	129.9
23:27:45	1023	0	-999.0	-999.0	139.1
23:27:50	1023	0	-999.0	-999.0	138.2
23:27:55	1022	0	-999.0	-999.0	131.6
23:28:00	1022	0	-999.0	-999.0	131.6
23:28:05	1023	0	-999.0	-999.0	145.7
23:28:10	1023	0	-999.0	-999.0	148.2
23:28:15	1023	0	-999.0	-999.0	140.7
23:28:20	1023	0	-999.0	-999.0	137.4
23:28:25	1023	0	-999.0	-999.0	140.7
23:28:30	1023	0	-999.0	-999.0	140.7
23:28:35	1023	0	-999.0	-999.0	140.7
23:28:40	1023	0	-999.0	-999.0	140.7
23:28:45	1023	0	-999.0	-999.0	140.7
23:28:50	1023	0	-999.0	-999.0	141.6
23:28:55	1023	0	-999.0	-999.0	140.7
23:29:00	1023	0	-999.0	-999.0	140.7
23:29:05	1023	0	-999.0	-999.0	140.7
23:29:10	1023	0	-999.0	-999.0	140.7
23:29:15	1023	0	-999.0	-999.0	140.7
23:29:20	1023	0	-999.0	-999.0	140.7
23:29:25	1023	0	-999.0	-999.0	142.4
23:29:30	1023	0	-999.0	-999.0	139.1
23:29:35	1023	0	-999.0	-999.0	140.7
23:29:40	1023	0	-999.0	-999.0	138.2
23:29:45	1023	0	-999.0	-999.0	120.8
23:29:50	1023	0	-999.0	-999.0	132.4
23:29:55	1022	0	-999.0	-999.0	133.3
23:30:00	1022	0	-999.0	-999.0	129.9
23:30:05	1023	0	-999.0	-999.0	130.8
23:30:10	1022	0	-999.0	-999.0	139.9
23:30:15	1023	0	-999.0	-999.0	141.6
23:30:20	1023	0	-999.0	-999.0	138.2
23:30:25	1022	0	-999.0	-999.0	139.9
23:30:30	1022	0	-999.0	-999.0	126.6
23:30:35	1023	0	-999.0	-999.0	137.4
23:30:40	1023	0	-999.0	-999.0	138.2
23:30:45	1023	0	-999.0	-999.0	140.7
23:30:50	1023	0	-999.0	-999.0	140.7
23:30:55	1022	0	-999.0	-999.0	128.3
23:31:00	1023	0	-999.0	-999.0	132.4
23:31:05	1023	0	-999.0	-999.0	137.4
23:31:10	1023	0	-999.0	-999.0	139.1
23:31:15	1023	0	-999.0	-999.0	140.7
23:31:20	1023	0	-999.0	-999.0	139.9
23:31:25	1023	0	-999.0	-999.0	124.1
23:31:30	1023	0	-999.0	-999.0	131.6
23:31:35	1023	0	-999.0	-999.0	132.4
23:31:40	1023	0	-999.0	-999.0	143.2
23:31:45	1023	0	-999.0	-999.0	140.7
23:31:50	1022	0	-999.0	-999.0	139.1
23:31:55	1023	0	-999.0	-999.0	139.1
23:32:00	1022	0	-999.0	-999.0	136.6
23:32:05	1022	0	-999.0	-999.0	118.3
23:32:10	1023	0	-999.0	-999.0	128.3
23:32:15	1023	0	-999.0	-999.0	134.1
23:32:20	1023	0	-999.0	-999.0	132.4
23:32:25	1022	0	-999.0	-999.0	133.3
23:32:30	1023	0	-999.0	-999.0	132.4
23:32:35	1023	0	-999.0	-999.0	152.3
23:32:40	1023	0	-999.0	-999.0	138.2
23:32:45	1023	0	-999.0	-999.0	138.2
23:32:50	1023	0	-999.0	-999.0	125.0
23:32:55	1022	0	-999.0	-999.0	131.6
23:33:00	1023	0	-999.0	-999.0	143.2
23:33:05	1023	0	-999.0	-999.0	137.4
23:33:10	1023	0	-999.0	-999.0	123.3
23:33:15	1023	0	-999.0	-999.0	132.4
23:33:20	1023	0	-999.0	-999.0	132.4
23:33:25	1023	0	-999.0	-999.0	146.5
23:33:30	1023	0	-999.0	-999.0	141.6
23:33:35	1023	0	-999.0	-999.0	138.2
23:33:40	1023	0	-999.0	-999.0	120.0
23:33:45	1023	0	-999.0	-999.0	131.6
23:33:50	1023	0	-999.0	-999.0	129.9
23:33:55	1022	0	-999.0	-999.0	135.7
23:34:00	1022	0	-999.0	-999.0	144.9
23:34:05	1023	0	-999.0	-999.0	136.6
23:34:10	1023	0	-999.0	-999.0	139.1
23:34:15	1023	0	-999.0	-999.0	137.4
23:34:20	1023	0	-999.0	-999.0	129.1
23:34:25	1023	0	-999.0	-999.0	131.6
23:34:30	1023	0	-999.0	-999.0	131.6
23:34:35	1023	0	-999.0	-999.0	143.2
23:34:40	1023	0	-999.0	-999.0	139.9
23:34:45	1022	0	-999.0	-999.0	126.6
23:34:50	1023	0	-999.0	-999.0	126.6
23:34:55	1023	0	-999.0	-999.0	132.4
23:35:00	1023	0	-999.0	-999.0	131.6
23:35:05	1023	0	-999.0	-999.0	152.3
23:35:10	1023	0	-999.0	-999.0	134.9
23:35:15	1022	0	-999.0	-999.0	129.9
23:35:20	1023	0	-999.0	-999.0	130.8
23:35:25	1023	0	-999.0	-999.0	128.3
23:35:30	1022	0	-999.0	-999.0	151.5
23:35:35	1023	0	-999.0	-999.0	139.9
23:35:40	1023	0	-999.0	-999.0	138.2
23:35:45	1023	0	-999.0	-999.0	136.6
23:35:50	1022	0	-999.0	-999.0	139.9
23:35:55	1023	0	-999.0	-999.0	136.6
23:36:00	1023	0	-999.0	-999.0	120.8
23:36:05	1023	0	-999.0	-999.0	128.3
23:36:10	1022	0	-999.0	-999.0	121.6
23:36:15	1022	0	-999.0	-999.0	123.3
23:36:20	1022	0	-999.0	-999.0	136.6
23:36:25	1022	0	-999.0	-999.0	139.1
23:36:30	1022	0	-999.0	-999.0	139.9
23:36:35	1023	0	-999.0	-999.0	139.9
23:36:40	1022	0	-999.0	-999.0	139.9
23:36:45	1023	0	-999.0	-999.0	140.7
23:36:50	1023	0	-999.0	-999.0	140.7
23:36:55	1023	0	-999.0	-999.0	153.2
23:37:00	1023	0	-999.0	-999.0	132.4
23:37:05	1022	0	-999.0	-999.0	129.9
23:37:10	1023	0	-999.0	-999.0	131.6
23:37:15	1023	0	-999.0	-999.0	130.8
23:37:20	1022	0	-999.0	-999.0	144.9
23:37:25	1022	0	-999.0	-999.0	136.6
23:37:30	1022	0	-999.0	-999.0	136.6
23:37:35	1023	0	-999.0	-999.0	128.3
23:37:40	1023	0	-999.0	-999.0	133.3
23:37:45	1022	0	-999.0	-999.0	129.9
23:37:50	1023	0	-999.0	-999.0	120.0
23:37:55	1023	0	-999.0	-999.0	138.2
23:38:00	1022	0	-999.0	-999.0	139.1
23:38:05	1023	0	-999.0	-999.0	140.7
23:38:10	1023	0	-999.0	-999.0	140.7
23:38:15	1022	0	-999.0	-999.0	139.9
23:38:20	1023	0	-999.0	-999.0	142.4
23:38:25	1023	0	-999.0	-999.0	140.7
23:38:30	1022	0	-999.0	-999.0	139.9
23:38:35	1023	0	-999.0	-999.0	139.1
23:38:40	1023	0	-999.0	-999.0	139.9
23:38:45	1022	0	-999.0	-999.0	139.9
23:38:50	1023	0	-999.0	-999.0	139.9
23:38:55	1023	0	-999.0	-999.0	140.7
23:39:00	1023	0	-999.0	-999.0	139.1
23:39:05	1023	0	-999.0	-999.0	150.7
23:39:10	1022	0	-999.0	-999.0	143.2
23:39:15	1022	0	-999.0	-999.0	133.3
23:39:20	1023	0	-999.0	-999.0	134.1
23:39:25	1023	0	-999.0	-999.0	134.1
23:39:30	1023	0	-999.0	-999.0	129.1
23:39:35	1023	0	-999.0	-999.0	122.5
23:39:40	1022	0	-999.0	-999.0	139.1
23:39:45	1022	0	-999.0	-999.0	139.9
23:39:50	1023	0	-999.0	-999.0	134.1
23:39:55	1023	0	-999.0	-999.0	132.4
23:40:00	1023	0	-999.0	-999.0	129.9
23:40:05	1023	0	-999.0	-999.0	125.8
23:40:10	1023	0	-999.0	-999.0	137.4
23:40:15	1023	0	-999.0	-999.0	137.4
23:40:20	1023	0	-999.0	-999.0	132.4
23:40:25	1023	0	-999.0	-999.0	125.8
23:40:30	1023	0	-999.0	-999.0	138.2
23:40:35	1023	0	-999.0	-999.0	138.2
23:40:40	1023	0	-999.0	-999.0	132.4
23:40:45	1023	0	-999.0	-999.0	134.1
23:40:50	1022	0	-999.0	-999.0	129.9
23:40:55	1023	0	-999.0	-999.0	117.5
23:41:00	1023	0	-999.0	-999.0	137.4
23:41:05	1023	0	-999.0	-999.0	139.9
23:41:10	1023	0	-999.0	-999.0	139.9
23:41:15	1023	0	-999.0	-999.0	140.7
23:41:20	1023	0	-999.0	-999.0	154.0
23:41:25	1022	0	-999.0	-999.0	131.6
23:41:30	1022	0	-999.0	-999.0	129.9
23:41:35	1023	0	-999.0	-999.0	117.5
23:41:40	1023	0	-999.0	-999.0	138.2
23:41:45	1023	0	-999.0	-999.0	137.4
23:41:50	1023	0	-999.0	-999.0	144.0
23:41:55	1022	0	-999.0	-999.0	133.3
23:42:00	1023	0	-999.0	-999.0	139.1
23:42:05	1023	0	-999.0	-999.0	154.0
23:42:10	1023	0	-999.0	-999.0	134.1
23:42:15	1023	0	-999.0	-999.0	120.8
23:42:20	1023	0	-999.0	-999.0	137.4
23:42:25	1022	0	-999.0	-999.0	136.6
23:42:30	1023	0	-999.0	-999.0	139.1
23:42:35	1023	0	-999.0	-999.0	140.7
23:42:40	1023	0	-999.0	-999.0	142.4
23:42:45	1023	0	-999.0	-999.0	144.0
23:42:50	1023	0	-999.0	-999.0	156.5
23:42:55	1023	0	-999.0	-999.0	140.7
23:43:00	1023	0	-999.0	-999.0	132.4
23:43:05	1022	0	-999.0	-999.0	131.6
23:43:10	1023	0	-999.0	-999.0	129.9
23:43:15	1023	0	-999.0	-999.0	128.3
23:43:20	1023	0	-999.0	-999.0	118.3
23:43:25	1023	0	-999.0	-999.0	121.6
23:43:30	1022	0	-999.0	-999.0	129.9
23:43:35	1023	0	-999.0	-999.0	130.8
23:43:40	1022	0	-999.0	-999.0	125.0
23:43:45	1023	0	-999.0	-999.0	134.1
23:43:50	1023	0	-999.0	-999.0	137.4
23:43:55	1023	0	-999.0	-999.0	138.2
23:44:00	1023	0	-999.0	-999.0	144.0
23:44:05	1023	0	-999.0	-999.0	131.6
23:44:10	1023	0	-999.0	-999.0	131.6
23:44:15	1023	0	-999.0	-999.0	130.8
23:44:20	1023	0	-999.0	-999.0	129.1
23:44:25	1023	0	-999.0	-999.0	137.4
23:44:30	1023	0	-999.0	-999.0	139.1
23:44:35	1022	0	-999.0	-999.0	139.1
23:44:40	1022	0	-999.0	-999.0	139.1
23:44:45	1022	0	-999.0	-999.0	136.6
23:44:50	1022	0	-999.0	-999.0	139.9
23:44:55	1022	0	-999.0	-999.0	142.4
23:45:00	1022	0	-999.0	-999.0	142.4
23:45:05	1023	0	-999.0	-999.0	132.4
23:45:10	1023	0	-999.0	-999.0	134.1
23:45:15	1022	0	-999.0	-999.0	131.6
23:45:20	1023	0	-999.0	-999.0	133.3
23:45:25	1023	0	-999.0	-999.0	131.6
23:45:30	1022	0	-999.0	-999.0	118.3
23:45:35	1022	0	-999.0	-999.0	139.9
23:45:40	1023	0	-999.0	-999.0	139.1
23:45:45	1023	0	-999.0	-999.0	142.4
23:45:50	1023	0	-999.0	-999.0	148.2
23:45:55	1023	0	-999.0	-999.0	152.3
23:46:00	1023	0	-999.0	-999.0	154.0
23:46:05	1023	0	-999.0	-999.0	139.9
23:46:10	1023	0	-999.0	-999.0	139.1
23:46:15	1023	0	-999.0	-999.0	142.4
23:46:20	1023	0	-999.0	-999.0	140.7
23:46:25	1023	0	-999.0	-999.0	120.8
23:46:30	1023	0	-999.0	-999.0	134.1
23:46:35	1023	0	-999.0	-999.0	134.1
23:46:40	1023	0	-999.0	-999.0	122.5
23:46:45	1022	0	-999.0	-999.0	139.9
23:46:50	1023	0	-999.0	-999.0	139.9
23:46:55	1022	0	-999.0	-999.0	139.9
23:47:00	1023	0	-999.0	-999.0	139.1
23:47:05	1023	0	-999.0	-999.0	140.7
23:47:10	1023	0	-999.0	-999.0	140.7
23:47:15	1023	0	-999.0	-999.0	140.7
23:47:20	1023	0	-999.0	-999.0	140.7
23:47:25	1022	0	-999.0	-999.0	139.9
23:47:30	1023	0	-999.0	-999.0	140.7
23:47:35	1023	0	-999.0	-999.0	137.4
23:47:40	1023	0	-999.0	-999.0	120.0
23:47:45	1023	0	-999.0	-999.0	119.1
23:47:50	1023	0	-999.0	-999.0	127.4
23:47:55	1023	0	-999.0	-999.0	127.4
23:48:00	1023	0	-999.0	-999.0	121.6
23:48:05	1023	0	-999.0	-999.0	134.1
23:48:10	1023	0	-999.0	-999.0	140.7
23:48:15	1023	0	-999.0	-999.0	139.1
23:48:20	1023	0	-999.0	-999.0	140.7
23:48:25	1023	0	-999.0	-999.0	150.7
23:48:30	1023	0	-999.0	-999.0	151.5
23:48:35	1022	0	-999.0	-999.0	139.9
23:48:40	1023	0	-999.0	-999.0	142.4
23:48:45	1023	0	-999.0	-999.0	142.4
23:48:50	1022	0	-999.0	-999.0	143.2
23:48:55	1023	0	-999.0	-999.0	144.0
23:49:00	1023	0	-999.0	-999.0	141.6
23:49:05	1023	0	-999.0	-999.0	140.7
23:49:10	1023	0	-999.0	-999.0	142.4
23:49:15	1023	0	-999.0	-999.0	144.0
23:49:20	1022	0	-999.0	-999.0	143.2
23:49:25	1023	0	-999.0	-999.0	140.7
23:49:30	1023	0	-999.0	-999.0	141.6
23:49:35	1023	0	-999.0	-999.0	142.4
23:49:40	1023	0	-999.0	-999.0	145.7
23:49:45	1023	0	-999.0	-999.0	145.7
23:49:50	1023	0	-999.0	-999.0	140.7
23:49:55	1023	0	-999.0	-999.0	140.7
23:50:00	1023	0	-999.0	-999.0	120.8
23:50:05	1022	0	-999.0	-999.0	135.7
23:50:10	1023	0	-999.0	-999.0	132.4
23:50:15	1023	0	-999.0	-999.0	154.0
23:50:20	1023	0	-999.0	-999.0	139.9
23:50:25	1023	0	-999.0	-999.0	139.1
23:50:30	1022	0	-999.0	-999.0	139.9
23:50:35	1023	0	-999.0	-999.0	142.4
23:50:40	1023	0	-999.0	-999.0	140.7
23:50:45	1022	0	-999.0	-999.0	142.4
23:50:50	1023	0	-999.0	-999.0	140.7
23:50:55	1023	0	-999.0	-999.0	142.4
23:51:00	1023	0	-999.0	-999.0	139.9
23:51:05	1023	0	-999.0	-999.0	139.1
23:51:10	1023	0	-999.0	-999.0	142.4
23:51:15	1023	0	-999.0	-999.0	140.7
23:51:20	1022	0	-999.0	-999.0	143.2
23:51:25	1023	0	-999.0	-999.0	142.4
23:51:30	1023	0	-999.0	-999.0	123.3
23:51:35	1023	0	-999.0	-999.0	135.7
23:51:40	1023	0	-999.0	-999.0	134.1
23:51:45	1023	0	-999.0	-999.0	151.5
23:51:50	1023	0	-999.0	-999.0	148.2
23:51:55	1022	0	-999.0	-999.0	141.6
23:52:00	1023	0	-999.0	-999.0	140.7
23:52:05	1022	0	-999.0	-999.0	139.9
23:52:10	1023	0	-999.0	-999.0	139.1
23:52:15	1022	0	-999.0	-999.0	129.9
23:52:20	1023	0	-999.0	-999.0	120.8
23:52:25	1023	0	-999.0	-999.0	129.9
23:52:30	1022	0	-999.0	-999.0	131.6
23:52:35	1023	0	-999.0	-999.0	129.1
23:52:40	1023	0	-999.0	-999.0	117.5
23:52:45	1022	0	-999.0	-999.0	136.6
23:52:50	1023	0	-999.0	-999.0	138.2
23:52:55	1023	0	-999.0	-999.0	140.7
23:53:00	1023	0	-999.0	-999.0	140.7
23:53:05	1023	0	-999.0	-999.0	140.7
23:53:10	1023	0	-999.0	-999.0	142.4
23:53:15	1023	0	-999.0	-999.0	139.9
23:53:20	1022	0	-999.0	-999.0	138.2
23:53:25	1023	0	-999.0	-999.0	134.1
23:53:30	1023	0	-999.0	-999.0	134.1
23:53:35	1023	0	-999.0	-999.0	147.4
23:53:40	1023	0	-999.0	-999.0	139.1
23:53:45	1023	0	-999.0	-999.0	139.1
23:53:50	1023	0	-999.0	-999.0	139.1
23:53:55	1023	0	-999.0	-999.0	120.8
23:54:00	1023	0	-999.0	-999.0	135.7
23:54:05	1023	0	-999.0	-999.0	134.1
23:54:10	1023	0	-999.0	-999.0	149.0
23:54:15	1023	0	-999.0	-999.0	144.0
23:54:20	1023	0	-999.0	-999.0	139.9
23:54:25	1023	0	-999.0	-999.0	141.6
23:54:30	1023	0	-999.0	-999.0	122.5
23:54:35	1023	0	-999.0	-999.0	132.4
23:54:39	1023	0	-999.0	-999.0	132.4
23:54:44	1022	0	-999.0	-999.0	131.6
23:54:49	1023	0	-999.0	-999.0	132.4
23:54:55	1023	0	-999.0	-999.0	131.6
23:54:59	1023	0	-999.0	-999.0	131.6
23:55:04	1022	0	-999.0	-999.0	139.9
23:55:09	1023	0	-999.0	-999.0	138.2
23:55:14	1023	0	-999.0	-999.0	132.4
23:55:19	1022	0	-999.0	-999.0	131.6
23:55:24	1023	0	-999.0	-999.0	154.0
23:55:30	1023	0	-999.0	-999.0	147.4
23:55:35	1023	0	-999.0	-999.0	140.7
23:55:39	1023	0	-999.0	-999.0	139.1
23:55:45	1022	0	-999.0	-999.0	139.9
23:55:50	1022	0	-999.0	-999.0	126.6
23:55:54	1022	0	-999.0	-999.0	133.3
23:55:59	1023	0	-999.0	-999.0	146.5
23:56:04	1023	0	-999.0	-999.0	140.7
23:56:09	1023	0	-999.0	-999.0	140.7
23:56:14	1023	0	-999.0	-999.0	120.8
23:56:19	1023	0	-999.0	-999.0	134.1
23:56:24	1023	0	-999.0	-999.0	134.1
23:56:30	1023	0	-999.0	-999.0	145.7
23:56:34	1023	0	-999.0	-999.0	140.7
23:56:39	1022	0	-999.0	-999.0	139.1
23:56:44	1022	0	-999.0	-999.0	122.5
23:56:49	1023	0	-999.0	-999.0	134.1
23:56:54	1023	0	-999.0	-999.0	148.2
23:56:59	1022	0	-999.0	-999.0	143.2
23:57:04	1022	0	-999.0	-999.0	144.0
23:57:10	1023	0	-999.0	-999.0	140.7
23:57:14	1022	0	-999.0	-999.0	139.9
23:57:19	1023	0	-999.0	-999.0	121.6
23:57:24	1023	0	-999.0	-999.0	134.1
23:57:29	1022	0	-999.0	-999.0	134.1
23:57:34	1023	0	-999.0	-999.0	154.8
23:57:39	1023	0	-999.0	-999.0	140.7
23:57:44	1022	0	-999.0	-999.0	139.9
23:57:49	1023	0	-999.0	-999.0	134.1
23:57:54	1023	0	-999.0	-999.0	147.4
23:57:59	1023	0	-999.0	-999.0	138.2
23:58:04	1022	0	-999.0	-999.0	131.6
23:58:09	1022	0	-999.0	-999.0	131.6
23:58:14	1023	0	-999.0	-999.0	147.4
23:58:19	1023	0	-999.0	-999.0	139.9
23:58:24	1022	0	-999.0	-999.0	121.6
23:58:29	1023	0	-999.0	-999.0	133.3
23:58:34	1023	0	-999.0	-999.0	140.7
23:58:40	1023	0	-999.0	-999.0	139.9
23:58:44	1022	0	-999.0	-999.0	135.7
23:58:49	1023	0	-999.0	-999.0	124.1
23:58:54	1022	0	-999.0	-999.0	124.1
23:58:59	1022	0	-999.0	-999.0	135.7
23:59:04	1023	0	-999.0	-999.0	138.2
23:59:09	1022	0	-999.0	-999.0	139.9
23:59:14	1023	0	-999.0	-999.0	140.7
23:59:19	1023	0	-999.0	-999.0	120.0
23:59:24	1022	0	-999.0	-999.0	129.9
23:59:29	1022	0	-999.0	-999.0	133.3
23:59:34	1023	0	-999.0	-999.0	133.3
23:59:39	1023	0	-999.0	-999.0	129.9
23:59:44	1023	0	-999.0	-999.0	132.4
23:59:49	1023	0	-999.0	-999.0	131.6
23:59:54	1022	0	-999.0	-999.0	131.6
23:59:59	1023	0	-999.0	-999.0	150.7
