06:25:07	0	0.00	0.00	288	1406.02	17.36	0	0.00	0.00
06:25:12	0	0.00	0.00	341	1664.76	20.56	0	0.00	0.00
06:25:17	0	0.00	0.00	339	1655.00	20.44	0	0.00	0.00
06:25:22	0	0.00	0.00	280	1366.96	16.88	0	0.00	0.00
06:25:27	0	0.00	0.00	275	1342.55	16.58	0	0.00	0.00
06:25:32	0	0.00	0.00	341	1664.76	20.56	0	0.00	0.00
06:25:37	0	0.00	0.00	344	1679.41	20.74	0	0.00	0.00
06:25:42	0	0.00	0.00	278	1357.20	16.76	0	0.00	0.00
06:25:47	0	0.00	0.00	272	1327.90	16.40	0	0.00	0.00
06:25:52	0	0.00	0.00	278	1357.20	16.76	0	0.00	0.00
06:25:57	0	0.00	0.00	336	1640.35	20.26	0	0.00	0.00
06:26:02	0	0.00	0.00	338	1650.12	20.38	0	0.00	0.00
06:26:07	0	0.00	0.00	337	1645.23	20.32	0	0.00	0.00
06:26:12	0	0.00	0.00	338	1650.12	20.38	0	0.00	0.00
06:26:17	0	0.00	0.00	335	1635.47	20.20	0	0.00	0.00
06:26:22	0	0.00	0.00	278	1357.20	16.76	0	0.00	0.00
06:26:27	0	0.00	0.00	273	1332.79	16.46	0	0.00	0.00
06:26:32	0	0.00	0.00	272	1327.90	16.40	0	0.00	0.00
06:26:37	0	0.00	0.00	334	1630.59	20.14	0	0.00	0.00
06:26:42	0	0.00	0.00	339	1655.00	20.44	0	0.00	0.00
06:26:47	0	0.00	0.00	337	1645.23	20.32	0	0.00	0.00
06:26:52	0	0.00	0.00	335	1635.47	20.20	0	0.00	0.00
06:26:57	0	0.00	0.00	337	1645.23	20.32	0	0.00	0.00
06:27:02	0	0.00	0.00	333	1625.71	20.08	0	0.00	0.00
06:27:07	0	0.00	0.00	278	1357.20	16.76	0	0.00	0.00
06:27:12	0	0.00	0.00	274	1337.67	16.52	0	0.00	0.00
06:27:17	0	0.00	0.00	337	1645.23	20.32	0	0.00	0.00
06:27:22	0	0.00	0.00	339	1655.00	20.44	0	0.00	0.00
06:27:27	0	0.00	0.00	282	1376.72	17.00	0	0.00	0.00
06:27:32	0	0.00	0.00	273	1332.79	16.46	0	0.00	0.00
06:27:37	0	0.00	0.00	275	1342.55	16.58	0	0.00	0.00
06:27:42	0	0.00	0.00	340	1659.88	20.50	0	0.00	0.00
06:27:47	0	0.00	0.00	337	1645.23	20.32	0	0.00	0.00
06:27:52	0	0.00	0.00	340	1659.88	20.50	0	0.00	0.00
06:27:57	0	0.00	0.00	335	1635.47	20.20	0	0.00	0.00
06:28:02	0	0.00	0.00	343	1674.53	20.68	0	0.00	0.00
06:28:07	0	0.00	0.00	333	1625.71	20.08	0	0.00	0.00
06:28:12	0	0.00	0.00	333	1625.71	20.08	0	0.00	0.00
06:28:17	0	0.00	0.00	295	1440.19	17.79	0	0.00	0.00
06:28:22	0	0.00	0.00	274	1337.67	16.52	0	0.00	0.00
06:28:27	0	0.00	0.00	271	1323.02	16.34	0	0.00	0.00
06:28:32	0	0.00	0.00	339	1655.00	20.44	0	0.00	0.00
06:28:37	0	0.00	0.00	334	1630.59	20.14	0	0.00	0.00
06:28:42	0	0.00	0.00	282	1376.72	17.00	0	0.00	0.00
06:28:47	0	0.00	0.00	273	1332.79	16.46	0	0.00	0.00
06:28:52	0	0.00	0.00	270	1318.14	16.28	0	0.00	0.00
06:28:57	0	0.00	0.00	331	1615.94	19.96	0	0.00	0.00
06:29:02	0	0.00	0.00	339	1655.00	20.44	0	0.00	0.00
06:29:07	0	0.00	0.00	333	1625.71	20.08	0	0.00	0.00
06:29:12	0	0.00	0.00	268	1308.38	16.16	0	0.00	0.00
06:29:17	0	0.00	0.00	273	1332.79	16.46	0	0.00	0.00
06:29:22	0	0.00	0.00	332	1620.82	20.02	0	0.00	0.00
06:29:27	0	0.00	0.00	339	1655.00	20.44	0	0.00	0.00
06:29:32	0	0.00	0.00	335	1635.47	20.20	0	0.00	0.00
06:29:37	0	0.00	0.00	277	1352.31	16.70	0	0.00	0.00
06:29:42	0	0.00	0.00	270	1318.14	16.28	0	0.00	0.00
06:29:47	0	0.00	0.00	273	1332.79	16.46	0	0.00	0.00
06:29:52	0	0.00	0.00	339	1655.00	20.44	0	0.00	0.00
06:29:57	0	0.00	0.00	339	1655.00	20.44	0	0.00	0.00
06:30:02	0	0.00	0.00	290	1415.78	17.48	0	0.00	0.00
06:30:07	0	0.00	0.00	275	1342.55	16.58	0	0.00	0.00
06:30:12	0	0.00	0.00	269	1313.26	16.22	0	0.00	0.00
06:30:17	0	0.00	0.00	273	1332.79	16.46	0	0.00	0.00
06:30:22	0	0.00	0.00	309	1508.54	18.63	0	0.00	0.00
06:30:27	0	0.00	0.00	326	1591.53	19.66	0	0.00	0.00
06:30:32	0	0.00	0.00	334	1630.59	20.14	0	0.00	0.00
06:30:37	0	0.00	0.00	333	1625.71	20.08	0	0.00	0.00
06:30:42	0	0.00	0.00	337	1645.23	20.32	0	0.00	0.00
06:30:47	0	0.00	0.00	341	1664.76	20.56	0	0.00	0.00
06:30:52	0	0.00	0.00	343	1674.53	20.68	0	0.00	0.00
06:30:57	0	0.00	0.00	335	1635.47	20.20	0	0.00	0.00
06:31:02	0	0.00	0.00	278	1357.20	16.76	0	0.00	0.00
06:31:07	0	0.00	0.00	273	1332.79	16.46	0	0.00	0.00
06:31:12	0	0.00	0.00	275	1342.55	16.58	0	0.00	0.00
06:31:17	0	0.00	0.00	280	1366.96	16.88	0	0.00	0.00
06:31:22	0	0.00	0.00	302	1474.36	18.21	0	0.00	0.00
06:31:27	0	0.00	0.00	339	1655.00	20.44	0	0.00	0.00
06:31:32	0	0.00	0.00	340	1659.88	20.50	0	0.00	0.00
06:31:37	0	0.00	0.00	339	1655.00	20.44	0	0.00	0.00
06:31:42	0	0.00	0.00	339	1655.00	20.44	0	0.00	0.00
06:31:47	0	0.00	