06:25:07	0	0.00	0.00	267	1303.49	16.10	0	0.00	0.00
06:25:12	0	0.00	0.00	266	1298.61	16.04	0	0.00	0.00
06:25:17	0	0.00	0.00	261	1274.20	15.74	0	0.00	0.00
06:25:22	0	0.00	0.00	260	1269.32	15.68	0	0.00	0.00
06:25:27	0	0.00	0.00	264	1288.85	15.92	0	0.00	0.00
06:25:32	0	0.00	0.00	312	1523.18	18.81	0	0.00	0.00
06:25:37	0	0.00	0.00	318	1552.48	19.17	0	0.00	0.00
06:25:42	0	0.00	0.00	318	1552.48	19.17	0	0.00	0.00
06:25:47	0	0.00	0.00	322	1572.00	19.41	0	0.00	0.00
06:25:52	0	0.00	0.00	305	1489.01	18.39	0	0.00	0.00
06:25:57	0	0.00	0.00	263	1283.97	15.86	0	0.00	0.00
06:26:02	0	0.00	0.00	261	1274.20	15.74	0	0.00	0.00
06:26:07	0	0.00	0.00	265	1293.73	15.98	0	0.00	0.00
06:26:12	0	0.00	0.00	267	1303.49	16.10	0	0.00	0.00
06:26:17	0	0.00	0.00	309	1508.54	18.63	0	0.00	0.00
06:26:22	0	0.00	0.00	314	1532.95	18.93	0	0.00	0.00
06:26:27	0	0.00	0.00	315	1537.83	18.99	0	0.00	0.00
06:26:32	0	0.00	0.00	315	1537.83	18.99	0	0.00	0.00
06:26:37	0	0.00	0.00	316	1542.71	19.05	0	0.00	0.00
06:26:42	0	0.00	0.00	318	1552.48	19.17	0	0.00	0.00
06:26:47	0	0.00	0.00	317	1547.59	19.11	0	0.00	0.00
06:26:52	0	0.00	0.00	311	1518.30	18.75	0	0.00	0.00
06:26:57	0	0.00	0.00	312	1523.18	18.81	0	0.00	0.00
06:27:02	0	0.00	0.00	320	1562.24	19.29	0	0.00	0.00
06:27:07	0	0.00	0.00	310	1513.42	18.69	0	0.00	0.00
06:27:12	0	0.00	0.00	261	1274.20	15.74	0	0.00	0.00
06:27:17	0	0.00	0.00	261	1274.20	15.74	0	0.00	0.00
06:27:22	0	0.00	0.00	262	1279.08	15.80	0	0.00	0.00
06:27:27	0	0.00	0.00	267	1303.49	16.10	0	0.00	0.00
06:27:32	0	0.00	0.00	261	1274.20	15.74	0	0.00	0.00
06:27:37	0	0.00	0.00	266	1298.61	16.04	0	0.00	0.00
06:27:42	0	0.00	0.00	270	1318.14	16.28	0	0.00	0.00
06:27:47	0	0.00	0.00	263	1283.97	15.86	0	0.00	0.00
06:27:52	0	0.00	0.00	266	1298.61	16.04	0	0.00	0.00
06:27:57	0	0.00	0.00	266	1298.61	16.04	0	0.00	0.00
06:28:02	0	0.00	0.00	267	1303.49	16.10	0	0.00	0.00
06:28:07	0	0.00	0.00	261	1274.20	15.74	0	0.00	0.00
06:28:12	0	0.00	0.00	266	1298.61	16.04	0	0.00	0.00
06:28:17	0	0.00	0.00	267	1303.49	16.10	0	0.00	0.00
06:28:22	0	0.00	0.00	312	1523.18	18.81	0	0.00	0.00
06:28:27	0	0.00	0.00	322	1572.00	19.41	0	0.00	0.00
06:28:32	0	0.00	0.00	320	1562.24	19.29	0	0.00	0.00
06:28:37	0	0.00	0.00	318	1552.48	19.17	0	0.00	0.00
06:28:42	0	0.00	0.00	294	1435.31	17.73	0	0.00	0.00
06:28:47	0	0.00	0.00	270	1318.14	16.28	0	0.00	0.00
06:28:52	0	0.00	0.00	274	1337.67	16.52	0	0.00	0.00
06:28:57	0	0.00	0.00	309	1508.54	18.63	0	0.00	0.00
06:29:02	0	0.00	0.00	316	1542.71	19.05	0	0.00	0.00
06:29:07	0	0.00	0.00	313	1528.07	18.87	0	0.00	0.00
06:29:12	0	0.00	0.00	318	1552.48	19.17	0	0.00	0.00
06:29:17	0	0.00	0.00	319	1557.36	19.23	0	0.00	0.00
06:29:22	0	0.00	0.00	315	1537.83	18.99	0	0.00	0.00
06:29:27	0	0.00	0.00	268	1308.38	16.16	0	0.00	0.00
06:29:32	0	0.00	0.00	265	1293.73	15.98	0	0.00	0.00
06:29:37	0	0.00	0.00	264	1288.85	15.92	0	0.00	0.00
06:29:42	0	0.00	0.00	268	1308.38	16.16	0	0.00	0.00
06:29:47	0	0.00	0.00	266	1298.61	16.04	0	0.00	0.00
06:29:52	0	0.00	0.00	265	1293.73	15.98	0	0.00	0.00
06:29:57	0	0.00	0.00	266	1298.61	16.04	0	0.00	0.00
06:30:02	0	0.00	0.00	269	1313.26	16.22	0	0.00	0.00
06:30:07	0	0.00	0.00	315	1537.83	18.99	0	0.00	0.00
06:30:12	0	0.00	0.00	309	1508.54	18.63	0	0.00	0.00
06:30:17	0	0.00	0.00	318	1552.48	19.17	0	0.00	0.00
06:30:22	0	0.00	0.00	309	1508.54	18.63	0	0.00	0.00
06:30:27	0	0.00	0.00	313	1528.07	18.87	0	0.00	0.00
06:30:32	0	0.00	0.00	318	1552.48	19.17	0	0.00	0.00
06:30:37	0	0.00	0.00	312	1523.18	18.81	0	0.00	0.00
06:30:42	0	0.00	0.00	260	1269.32	15.68	0	0.00	0.00
06:30:47	0	0.00	0.00	270	1318.14	16.28	0	0.00	0.00
06:30:52	0	0.00	0.00	282	1376.72	17.00	0	0.00	0.00
06:30:57	0	0.00	0.00	316	1542.71	19.05	0	0.00	0.00
06:31:02	0	0.00	0.00	317	1547.59	19.11	0	0.00	0.00
06:31:07	0	0.00	0.00	318	1552.48	19.17	0	0.00	0.00
06:31:12	0	0.00	0.00	313	1528.07	18.87	0	0.00	0.00
06:31:17	0	0.00	0.00	280	1366.96	16.88	0	0.00	0.00
06:31:22	0	0.00	0.00	261	1274.20	15.74	0	0.00	0.00
06:31:27	0	0.00	0.00	264	1288.85	15.92	0	0.00	0.00
06:31:32	0	0.00	0.00	266	1298.61	16.04	0	0.00	0.00
06:31:37	0	0.00	0.00	314	1532.95	18.93	0	0.00	0.00
06:31:42	0	0.00	0.00	313	1528.07	18.87	0	0.00	0.00
06:31:47	0	0.00	0.00	318	1552.48	19.17	0	0.00	0.00
06:31:52	0	0.00	0.00	305	1489.01	18.39	0	0.00	0.00
06:31:57	0	0.00	0.00	312	1523.18	18.81	0	0.00	0.00
06:32:02	0	0.00	0.00	315	1537.83	18.99	0	0.00	0.00
06:32:07	0	0.00	0.00	322	1572.00	19.41	0	0.00	0.00
06:32:12	0	0.00	0.00	320	1562.24	19.29	0	0.00	0.00
06:32:17	0	0.00	0.00	316	1542.71	19.05	0	0.00	0.00
06:32:22	0	0.00	0.00	313	1528.07	18.87	0	0.00	0.00
06:32:27	0	0.00	0.00	278	1357.20	16.76	0	0.00	0.00
06:32:32	0	0.00	0.00	265	1293.73	15.98	0	0.00	0.00
06:32:37	0	0.00	0.00	268	1308.38	16.16	0	0.00	0.00
06:32:42	0	0.00	0.00	266	1298.61	16.04	0	0.00	0.00
06:32:47	0	0.00	0.00	312	1523.18	18.81	0	0.00	0.00
06:32:52	0	0.00	0.00	317	1547.59	19.11	0	0.00	0.00
06:32:57	0	0.00	0.00	313	1528.07	18.87	0	0.00	0.00
06:33:02	0	0.00	0.00	315	1537.83	18.99	0	0.00	0.00
06:33:07	0	0.00	0.00	294	1435.31	17.73	0	0.00	0.00
06:33:12	0	0.00	0.00	267	1303.49	16.10	0	0.00	0.00
06:33:17	0	0.00	0.00	263	1283.97	15.86	0	0.00	0.00
06:33:22	0	0.00	0.00	268	1308.38	16.16	0	0.00	0.00
06:33:27	0	0.00	0.00	281	1371.84	16.94	0	0.00	0.00
06:33:32	0	0.00	0.00	306	1493.89	18.45	0	0.00	0.00
06:33:37	0	0.00	0.00	317	1547.59	19.11	0	0.00	0.00
06:33:42	0	0.00	0.00	311	1518.30	18.75	0	0.00	0.00
06:33:47	0	0.00	0.00	318	1552.48	19.17	0	0.00	0.00
06:33:52	0	0.00	0.00	316	1542.71	19.05	0	0.00	0.00
06:33:57	0	0.00	0.00	318	1552.48	19.17	0	0.00	0.00
06:34:02	0	0.00	0.00	294	1435.31	17.73	0	0.00	0.00
06:34:07	0	0.00	0.00	260	1269.32	15.68	0	0.00	0.00
06:34:12	0	0.00	0.00	267	1303.49	16.10	0	0.00	0.00
06:34:17	0	0.00	0.00	264	1288.85	15.92	0	0.00	0.00
06:34:22	0	0.00	0.00	312	1523.18	18.81	0	0.00	0.00
06:34:27	0	0.00	0.00	316	1542.71	19.05	0	0.00	0.00
06:34:32	0	0.00	0.00	311	1518.30	18.75	0	0.00	0.00
06:34:37	0	0.00	0.00	316	1542.71	19.05	0	0.00	0.00
06:34:42	0	0.00	0.00	261	1274.20	15.74	0	0.00	0.00
06:34:47	0	0.00	0.00	266	1298.61	16.04	0	0.00	0.00
06:34:52	0	0.00	0.00	264	1288.85	15.92	0	0.00	0.00
06:34:57	0	0.00	0.00	312	1523.18	18.81	0	0.00	0.00
06:35:02	0	0.00	0.00	315	1537.83	18.99	0	0.00	0.00
06:35:07	0	0.00	0.00	318	1552.48	19.17	0	0.00	0.00
06:35:12	0	0.00	0.00	267	1303.49	16.10	0	0.00	0.00
06:35:17	0	0.00	0.00	261	1274.20	15.74	0	0.00	0.00
06:35:22	0	0.00	0.00	268	1308.38	16.16	0	0.00	0.00
06:35:27	0	0.00	0.00	267	1303.49	16.10	0	0.00	0.00
06:35:32	0	0.00	0.00	262	1279.08	15.80	0	0.00	0.00
06:35:37	0	0.00	0.00	264	1288.85	15.92	0	0.00	0.00
06:35:42	0	0.00	0.00	267	1303.49	16.10	0	0.00	0.00
06:35:47	0	0.00	0.00	314	1532.95	18.93	0	0.00	0.00
06:35:52	0	0.00	0.00	316	1542.71	19.05	0	0.00	0.00
06:35:57	0	0.00	0.00	317	1547.59	19.11	0	0.00	0.00
06:36:02	0	0.00	0.00	320	1562.24	19.29	0	0.00	0.00
06:36:07	0	0.00	0.00	309	1508.54	18.63	0	0.00	0.00
06:36:12	0	0.00	0.00	307	1498.77	18.51	0	0.00	0.00
06:36:17	0	0.00	0.00	272	1327.90	16.40	0	0.00	0.00
06:36:22	0	0.00	0.00	267	1303.49	16.10	0	0.00	0.00
06:36:27	0	0.00	0.00	264	1288.85	15.92	0	0.00	0.00
06:36:32	0	0.00	0.00	265	1293.73	15.98	0	0.00	0.00
06:36:37	0	0.00	0.00	266	1298.61	16.04	0	0.00	0.00
06:36:42	0	0.00	0.00	265	1293.73	15.98	0	0.00	0.00
06:36:47	0	0.00	0.00	301	1469.48	18.15	0	0.00	0.00
06:36:52	0	0.00	0.00	309	1508.54	18.63	0	0.00	0.00
06:36:57	0	0.00	0.00	311	1518.30	18.75	0	0.00	0.00
06:37:02	0	0.00	0.00	315	1537.83	18.99	0	0.00	0.00
06:37:07	0	0.00	0.00	286	1396.25	17.24	0	0.00	0.00
06:37:12	0	0.00	0.00	259	1264.44	15.62	0	0.00	0.00
06:37:17	0	0.00	0.00	257	1254.67	15.50	0	0.00	0.00
06:37:22	0	0.00	0.00	266	1298.61	16.04	0	0.00	0.00
06:37:27	0	0.00	0.00	267	1303.49	16.10	0	0.00	0.00
06:37:32	0	0.00	0.00	305	1489.01	18.39	0	0.00	0.00
06:37:37	0	0.00	0.00	314	1532.95	18.93	0	0.00	0.00
06:37:42	0	0.00	0.00	267	1303.49	16.10	0	0.00	0.00
06:37:47	0	0.00	0.00	266	1298.61	16.04	0	0.00	0.00
06:37:52	0	0.00	0.00	261	1274.20	15.74	0	0.00	0.00
06:37:57	0	0.00	0.00	270	1318.14	16.28	0	0.00	0.00
06:38:02	0	0.00	0.00	265	1293.73	15.98	0	0.00	0.00
06:38:07	0	0.00	0.00	267	1303.49	16.10	0	0.00	0.00
06:38:12	0	0.00	0.00	262	1279.08	15.80	0	0.00	0.00
06:38:17	0	0.00	0.00	268	1308.38	16.16	0	0.00	0.00
06:38:22	0	0.00	0.00	264	1288.85	15.92	0	0.00	0.00
06:38:27	0	0.00	0.00	265	1293.73	15.98	0	0.00	0.00
06:38:32	0	0.00	0.00	265	1293.73	15.98	0	0.00	0.00
06:38:37	0	0.00	0.00	267	1303.49	16.10	0	0.00	0.00
06:38:42	0	0.00	0.00	270	1318.14	16.28	0	0.00	0.00
06:38:47	0	0.00	0.00	263	1283.97	15.86	0	0.00	0.00
06:38:52	0	0.00	0.00	265	1293.73	15.98	0	0.00	0.00
06:38:57	0	0.00	0.00	261	1274.20	15.74	0	0.00	0.00
06:39:02	0	0.00	0.00	265	1293.73	15.98	0	0.00	0.00
06:39:07	0	0.00	0.00	263	1283.97	15.86	0	0.00	0.00
06:39:12	0	0.00	0.00	280	1366.96	16.88	0	0.00	0.00
06:39:17	0	0.00	0.00	310	1513.42	18.69	0	0.00	0.00
06:39:22	0	0.00	0.00	309	1508.54	18.63	0	0.00	0.00
06:39:27	0	0.00	0.00	281	1371.84	16.94	0	0.00	0.00
06:39:32	0	0.00	0.00	265	1293.73	15.98	0	0.00	0.00
06:39:37	0	0.00	0.00	267	1303.49	16.10	0	0.00	0.00
06:39:42	0	0.00	0.00	268	1308.38	16.16	0	0.00	0.00
06:39:47	0	0.00	0.00	264	1288.85	15.92	0	0.00	0.00
06:39:52	0	0.00	0.00	261	1274.20	15.74	0	0.00	0.00
06:39:57	0	0.00	0.00	265	1293.73	15.98	0	0.00	0.00
06:40:02	0	0.00	0.00	267	1303.49	16.10	0	0.00	0.00
06:40:07	0	0.00	0.00	305	1489.01	18.39	0	0.00	0.00
06:40:12	0	0.00	0.00	315	1537.83	18.99	0	0.00	0.00
06:40:17	0	0.00	0.00	292	1425.54	17.61	0	0.00	0.00
06:40:22	0	0.00	0.00	263	1283.97	15.86	0	0.00	0.00
06:40:27	0	0.00	0.00	262	1279.08	15.80	0	0.00	0.00
06:40:32	0	0.00	0.00	265	1293.73	15.98	0	0.00	0.00
06:40:37	0	0.00	0.00	272	1327.90	16.40	0	0.00	0.00
06:40:42	0	0.00	0.00	306	1493.89	18.45	0	0.00	0.00
06:40:47	0	0.00	0.00	311	1518.30	18.75	0	0.00	0.00
06:40:52	0	0.00	0.00	318	1552.48	19.17	0	0.00	0.00
06:40:57	0	0.00	0.00	313	1528.07	18.87	0	0.00	0.00
06:41:02	0	0.00	0.00	313	1528.07	18.87	0	0.00	0.00
06:41:07	0	0.00	0.00	314	1532.95	18.93	0	0.00	0.00
06:41:12	0	0.00	0.00	314	1532.95	18.93	0	0.00	0.00
06:41:17	0	0.00	0.00	315	1537.83	18.99	0	0.00	0.00
06:41:22	0	0.00	0.00	312	1523.18	18.81	0	0.00	0.00
06:41:27	0	0.00	0.00	263	1283.97	15.86	0	0.00	0.00
06:41:32	0	0.00	0.00	265	1293.73	15.98	0	0.00	0.00
06:41:37	0	0.00	0.00	320	1562.24	19.29	0	0.00	0.00
06:41:42	0	0.00	0.00	315	1537.83	18.99	0	0.00	0.00
06:41:47	0	0.00	0.00	312	1523.18	18.81	0	0.00	0.00
06:41:52	0	0.00	0.00	265	1293.73	15.98	0	0.00	0.00
06:41:57	0	0.00	0.00	265	1293.73	15.98	0	0.00	0.00
06:42:02	0	0.00	0.00	264	1288.85	15.92	0	0.00	0.00
06:42:07	0	0.00	0.00	265	1293.73	15.98	0	0.00	0.00
06:42:12	0	0.00	0.00	270	1318.14	16.28	0	0.00	0.00
06:42:17	0	0.00	0.00	262	1279.08	15.80	0	0.00	0.00
06:42:22	0	0.00	0.00	270	1318.14	16.28	0	0.00	0.00
06:42:27	0	0.00	0.00	263	1283.97	15.86	0	0.00	0.00
06:42:32	0	0.00	0.00	290	1415.78	17.48	0	0.00	0.00
06:42:37	0	0.00	0.00	313	1528.07	18.87	0	0.00	0.00
06:42:42	0	0.00	0.00	316	1542.71	19.05	0	0.00	0.00
06:42:47	0	0.00	0.00	316	1542.71	19.05	0	0.00	0.00
06:42:52	0	0.00	0.00	315	1537.83	18.99	0	0.00	0.00
06:42:57	0	0.00	0.00	313	1528.07	18.87	0	0.00	0.00
06:43:02	0	0.00	0.00	316	1542.71	19.05	0	0.00	0.00
06:43:07	0	0.00	0.00	311	1518.30	18.75	0	0.00	0.00
06:43:12	0	0.00	0.00	304	1484.13	18.33	0	0.00	0.00
06:43:17	0	0.00	0.00	260	1269.32	15.68	0	0.00	0.00
06:43:21	0	0.00	0.00	269	1313.26	16.22	0	0.00	0.00
06:43:26	0	0.00	0.00	270	1318.14	16.28	0	0.00	0.00
06:43:31	0	0.00	0.00	293	1430.43	17.67	0	0.00	0.00
06:43:36	0	0.00	0.00	318	1552.48	19.17	0	0.00	0.00
06:43:41	0	0.00	0.00	312	1523.18	18.81	0	0.00	0.00
06:43:47	0	0.00	0.00	316	1542.71	19.05	0	0.00	0.00
06:43:52	0	0.00	0.00	320	1562.24	19.29	0	0.00	0.00
06:43:56	0	0.00	0.00	316	1542.71	19.05	0	0.00	0.00
06:44:01	0	0.00	0.00	311	1518.30	18.75	0	0.00	0.00
06:44:07	0	0.00	0.00	320	1562.24	19.29	0	0.00	0.00
06:44:12	0	0.00	0.00	309	1508.54	18.63	0	0.00	0.00
06:44:16	0	0.00	0.00	317	1547.59	19.11	0	0.00	0.00
06:44:22	0	0.00	0.00	320	1562.24	19.29	0	0.00	0.00
06:44:26	0	0.00	0.00	309	1508.54	18.63	0	0.00	0.00
06:44:31	0	0.00	0.00	318	1552.48	19.17	0	0.00	0.00
06:44:36	0	0.00	0.00	313	1528.07	18.87	0	0.00	0.00
06:44:41	0	0.00	0.00	309	1508.54	18.63	0	0.00	0.00
06:44:46	0	0.00	0.00	301	1469.48	18.15	0	0.00	0.00
06:44:52	0	0.00	0.00	261	1274.20	15.74	0	0.00	0.00
06:44:56	0	0.00	0.00	270	1318.14	16.28	0	0.00	0.00
06:45:01	0	0.00	0.00	265	1293.73	15.98	0	0.00	0.00
06:45:06	0	0.00	0.00	263	1283.97	15.86	0	0.00	0.00
06:45:11	0	0.00	0.00	268	1308.38	16.16	0	0.00	0.00
06:45:17	0	0.00	0.00	272	1327.90	16.40	0	0.00	0.00
06:45:22	0	0.00	0.00	286	1396.25	17.24	0	0.00	0.00
06:45:27	0	0.00	0.00	311	1518.30	18.75	0	0.00	0.00
06:45:31	0	0.00	0.00	313	1528.07	18.87	0	0.00	0.00
06:45:36	0	0.00	0.00	309	1508.54	18.63	0	0.00	0.00
06:45:41	0	0.00	0.00	312	1523.18	18.81	0	0.00	0.00
06:45:46	0	0.00	0.00	314	1532.95	18.93	0	0.00	0.00
06:45:51	0	0.00	0.00	300	1464.60	18.09	0	0.00	0.00
06:45:56	0	0.00	0.00	315	1537.83	18.99	0	0.00	0.00
06:46:01	0	0.00	0.00	318	1552.48	19.17	0	0.00	0.00
06:46:06	0	0.00	0.00	316	1542.71	19.05	0	0.00	0.00
06:46:11	0	0.00	0.00	314	1532.95	18.93	0	0.00	0.00
06:46:16	0	0.00	0.00	293	1430.43	17.67	0	0.00	0.00
06:46:21	0	0.00	0.00	261	1274.20	15.74	0	0.00	0.00
06:46:26	0	0.00	0.00	267	1303.49	16.10	0	0.00	0.00
06:46:31	0	0.00	0.00	290	1415.78	17.48	0	0.00	0.00
06:46:36	0	0.00	0.00	318	1552.48	19.17	0	0.00	0.00
06:46:41	0	0.00	0.00	318	1552.48	19.17	0	0.00	0.00
06:46:46	0	0.00	0.00	313	1528.07	18.87	0	0.00	0.00
06:46:51	0	0.00	0.00	265	1293.73	15.98	0	0.00	0.00
06:46:56	0	0.00	0.00	270	1318.14	16.28	0	0.00	0.00
06:47:01	0	0.00	0.00	269	1313.26	16.22	0	0.00	0.00
06:47:06	0	0.00	0.00	266	1298.61	16.04	0	0.00	0.00
06:47:11	0	0.00	0.00	263	1283.97	15.86	0	0.00	0.00
06:47:16	0	0.00	0.00	269	1313.26	16.22	0	0.00	0.00
06:47:21	0	0.00	0.00	291	1420.66	17.55	0	0.00	0.00
06:47:26	0	0.00	0.00	320	1562.24	19.29	0	0.00	0.00
06:47:31	0	0.00	0.00	314	1532.95	18.93	0	0.00	0.00
06:47:36	0	0.00	0.00	312	1523.18	18.81	0	0.00	0.00
06:47:41	0	0.00	0.00	315	1537.83	18.99	0	0.00	0.00
06:47:46	0	0.00	0.00	311	1518.30	18.75	0	0.00	0.00
06:47:51	0	0.00	0.00	316	1542.71	19.05	0	0.00	0.00
06:47:56	0	0.00	0.00	263	1283.97	15.86	0	0.00	0.00
06:48:01	0	0.00	0.00	267	1303.49	16.10	0	0.00	0.00
06:48:06	0	0.00	0.00	265	1293.73	15.98	0	0.00	0.00
06:48:11	0	0.00	0.00	268	1308.38	16.16	0	0.00	0.00
06:48:16	0	0.00	0.00	265	1293.73	15.98	0	0.00	0.00
06:48:21	0	0.00	0.00	270	1318.14	16.28	0	0.00	0.00
06:48:26	0	0.00	0.00	261	1274.20	15.74	0	0.00	0.00
06:48:31	0	0.00	0.00	270	1318.14	16.28	0	0.00	0.00
06:48:36	0	0.00	0.00	270	1318.14	16.28	0	0.00	0.00
06:48:41	0	0.00	0.00	267	1303.49	16.10	0	0.00	0.00
06:48:46	0	0.00	0.00	269	1313.26	16.22	0	0.00	0.00
06:48:51	0	0.00	0.00	267	1303.49	16.10	0	0.00	0.00
06:48:56	0	0.00	0.00	270	1318.14	16.28	0	0.00	0.00
06:49:01	0	0.00	0.00	265	1293.73	15.98	0	0.00	0.00
06:49:06	0	0.00	0.00	267	1303.49	16.10	0	0.00	0.00
06:49:11	0	0.00	0.00	270	1318.14	16.28	0	0.00	0.00
06:49:16	0	0.00	0.00	272	1327.90	16.40	0	0.00	0.00
06:49:21	0	0.00	0.00	271	1323.02	16.34	0	0.00	0.00
06:49:26	0	0.00	0.00	265	1293.73	15.98	0	0.00	0.00
06:49:31	0	0.00	0.00	268	1308.38	16.16	0	0.00	0.00
06:49:36	0	0.00	0.00	270	1318.14	16.28	0	0.00	0.00
06:49:41	0	0.00	0.00	268	1308.38	16.16	0	0.00	0.00
06:49:46	0	0.00	0.00	265	1293.73	15.98	0	0.00	0.00
06:49:51	0	0.00	0.00	261	1274.20	15.74	0	0.00	0.00
06:49:56	0	0.00	0.00	269	1313.26	16.22	0	0.00	0.00
06:50:01	0	0.00	0.00	282	1376.72	17.00	0	0.00	0.00
06:50:06	0	0.00	0.00	315	1537.83	18.99	0	0.00	0.00
06:50:11	0	0.00	0.00	320	1562.24	19.29	0	0.00	0.00
06:50:16	0	0.00	0.00	317	1547.59	19.11	0	0.00	0.00
06:50:21	0	0.00	0.00	308	1503.66	18.57	0	0.00	0.00
06:50:26	0	0.00	0.00	320	1562.24	19.29	0	0.00	0.00
06:50:31	0	0.00	0.00	312	1523.18	18.81	0	0.00	0.00
06:50:36	0	0.00	0.00	317	1547.59	19.11	0	0.00	0.00
06:50:41	0	0.00	0.00	309	1508.54	18.63	0	0.00	0.00
06:50:46	0	0.00	0.00	313	1528.07	18.87	0	0.00	0.00
06:50:51	0	0.00	0.00	322	1572.00	19.41	0	0.00	0.00
06:50:56	0	0.00	0.00	315	1537.83	18.99	0	0.00	0.00
06:51:01	0	0.00	0.00	311	1518.30	18.75	0	0.00	0.00
06:51:06	0	0.00	0.00	311	1518.30	18.75	0	0.00	0.00
06:51:11	0	0.00	0.00	314	1532.95	18.93	0	0.00	0.00
06:51:16	0	0.00	0.00	314	1532.95	18.93	0	0.00	0.00
06:51:21	0	0.00	0.00	320	1562.24	19.29	0	0.00	0.00
06:51:26	0	0.00	0.00	315	1537.83	18.99	0	0.00	0.00
06:51:31	0	0.00	0.00	314	1532.95	18.93	0	0.00	0.00
06:51:36	0	0.00	0.00	261	1274.20	15.74	0	0.00	0.00
06:51:41	0	0.00	0.00	270	1318.14	16.28	0	0.00	0.00
06:51:46	0	0.00	0.00	265	1293.73	15.98	0	0.00	0.00
06:51:51	0	0.