23:45:40	0	0.00	0.00	257	1254.67	15.50	0	0.00	0.00
23:45:45	0	0.00	0.00	266	1298.61	16.04	0	0.00	0.00
23:45:50	0	0.00	0.00	269	1313.26	16.22	0	0.00	0.00
23:45:55	0	0.00	0.00	270	1318.14	16.28	0	0.00	0.00
23:46:00	0	0.00	0.00	270	1318.14	16.28	0	0.00	0.00
23:46:05	0	0.00	0.00	269	1313.26	16.22	0	0.00	0.00
23:46:10	0	0.00	0.00	276	1347.43	16.64	0	0.00	0.00
23:46:15	0	0.00	0.00	294	1435.31	17.73	0	0.00	0.00
23:46:20	0	0.00	0.00	332	1620.82	20.02	0	0.00	0.00
23:46:25	0	0.00	0.00	335	1635.47	20.20	0	0.00	0.00
23:46:30	0	0.00	0.00	334	1630.59	20.14	0	0.00	0.00
23:46:35	0	0.00	0.00	333	1625.71	20.08	0	0.00	0.00
23:46:40	0	0.00	0.00	334	1630.59	20.14	0	0.00	0.00
23:46:45	0	0.00	0.00	341	1664.76	20.56	0	0.00	0.00
23:46:50	0	0.00	0.00	341	1664.76	20.56	0	0.00	0.00
23:46:55	0	0.00	0.00	336	1640.35	20.26	0	0.00	0.00
23:47:00	0	0.00	0.00	335	1635.47	20.20	0	0.00	0.00
23:47:05	0	0.00	0.00	269	1313.26	16.22	0	0.00	0.00
23:47:10	0	0.00	0.00	269	1313.26	16.22	0	0.00	0.00
23:47:15	0	0.00	0.00	283	1381.61	17.06	0	0.00	0.00
23:47:20	0	0.00	0.00	334	1630.59	20.14	0	0.00	0.00
23:47:25	0	0.00	0.00	336	1640.35	20.26	0	0.00	0.00
23:47:30	0	0.00	0.00	339	1655.00	20.44	0	0.00	0.00
23:47:35	0	0.00	0.00	276	1347.43	16.64	0	0.00	0.00
23:47:40	0	0.00	0.00	272	1327.90	16.40	0	0.00	0.00
23:47:45	0	0.00	0.00	271	1323.02	16.34	0	0.00	0.00
23:47:50	0	0.00	0.00	336	1640.35	20.26	0	0.00	0.00
23:47:55	0	0.00	0.00	336	1640.35	20.26	0	0.00	0.00
23:48:00	0	0.00	0.00	273	1332.79	16.46	0	0.00	0.00
23:48:05	0	0.00	0.00	270	1318.14	16.28	0	0.00	0.00
23:48:10	0	0.00	0.00	335	1635.47	20.20	0	0.00	0.00
23:48:15	0	0.00	0.00	333	1625.71	20.08	0	0.00	0.00
23:48:20	0	0.00	0.00	324	1581.77	19.53	0	0.00	0.00
23:48:25	0	0.00	0.00	275	1342.55	16.58	0	0.00	0.00
23:48:30	0	0.00	0.00	273	1332.79	16.46	0	0.00	0.00
23:48:35	0	0.00	0.00	272	1327.90	16.40	0	0.00	0.00
23:48:40	0	0.00	0.00	263	1283.97	15.86	0	0.00	0.00
23:48:45	0	0.00	0.00	270	1318.14	16.28	0	0.00	0.00
23:48:50	0	0.00	0.00	288	1406.02	17.36	0	0.00	0.00
23:48:55	0	0.00	0.00	335	1635.47	20.20	0	0.00	0.00
23:49:00	0	0.00	0.00	333	1625.71	20.08	0	0.00	0.00
23:49:05	0	0.00	0.00	333	1625.71	20.08	0	0.00	0.00
23:49:10	0	0.00	0.00	319	1557.36	19.23	0	0.00	0.00
23:49:15	0	0.00	0.00	273	1332.79	16.46	0	0.00	0.00
23:49:20	0	0.00	0.00	269	1313.26	16.22	0	0.00	0.00
23:49:25	0	0.00	0.00	270	1318.14	16.28	0	0.00	0.00
23:49:30	0	0.00	0.00	270	1318.14	16.28	0	0.00	0.00
23:49:35	0	0.00	0.00	268	1308.38	16.16	0	0.00	0.00
23:49:40	0	0.00	0.00	270	1318.14	16.28	0	0.00	0.00
23:49:45	0	0.00	0.00	325	1586.65	19.60	0	0.00	0.00
23:49:50	0	0.00	0.00	334	1630.59	20.14	0	0.00	0.00
23:49:55	0	0.00	0.00	335	1635.47	20.20	0	0.00	0.00
23:50:00	0	0.00	0.00	270	1318.14	16.28	0	0.00	0.00
23:50:05	0	0.00	0.00	266	1298.61	16.04	0	0.00	0.00
23:50:10	0	0.00	0.00	269	1313.26	16.22	0	0.00	0.00
23:50:15	0	0.00	0.00	271	1323.02	16.34	0	0.00	0.00
23:50:20	0	0.00	0.00	272	1327.90	16.40	0	0.00	0.00
23:50:25	0	0.00	0.00	272	1327.90	16.40	0	0.00	0.00
23:50:30	0	0.00	0.00	245	1196.09	14.77	0	0.00	0.00
23:50:35	0	0.00	0.00	275	1342.55	16.58	0	0.00	0.00
23:50:40	0	0.00	0.00	322	1572.00	19.41	0	0.00	0.00
23:50:45	0	0.00	0.00	339	1655.00	20.44	0	0.00	0.00
23:50:50	0	0.00	0.00	335	1635.47	20.20	0	0.00	0.00
23:50:55	0	0.00	0.00	334	1630.59	20.14	0	0.00	0.00
23:51:00	0	0.00	0.00	337	1645.23	20.32	0	0.00	0.00
23:51:05	0	0.00	0.00	332	1620.82	20.02	0	0.00	0.00
23:51:10	0	0.00	0.00	336	1640.35	20.26	0	0.00	0.00
23:51:15	0	0.00	0.00	332	1620.82	20.02	0	0.00	0.00
23:51:20	0	0.00	0.00	333	1625.71	20.08	0	0.00	0.00
23:51:25	0	0.00	0.00	329	1606.18	19.84	0	0.00	0.00
23:51:30	0	0.00	0.00	270	1318.14	16.28	0	0.00	0.00
23:51:35	0	0.00	0.00	269	1313.26	16.22	0	0.00	0.00
23:51:40	0	0.00	0.00	269	1313.26	16.22	0	0.00	0.00
23:51:45	0	0.00	0.00	314	1532.95	18.93	0	0.00	0.00
23:51:50	0	0.00	0.00	323	1576.89	19.47	0	0.00	0.00
23:51:55	0	0.00	0.00	308	1503.66	18.57	0	0.00	0.00
23:52:00	0	0.00	0.00	305	1489.01	18.39	0	0.00	0.00
23:52:05	0	0.00	0.00	275	1342.55	16.58	0	0.00	0.00
23:52:10	0	0.00	0.00	299	1459.72	18.03	0	0.00	0.00
23:52:15	0	0.00	0.00	333	1625.71	20.08	0	0.00	0.00
23:52:20	0	0.00	0.00	334	1630.59	20.14	0	0.00	0.00
23:52:25	0	0.00	0.00	326	1591.53	19.66	0	0.00	0.00
23:52:30	0	0.00	0.00	273	1332.79	16.46	0	0.00	0.00
23:52:35	0	0.00	0.00	274	1337.67	16.52	0	0.00	0.00
23:52:40	0	0.00	0.00	275	1342.55	16.58	0	0.00	0.00
23:52:45	0	0.00	0.00	305	1489.01	18.39	0	0.00	0.00
23:52:50	0	0.00	0.00	326	1591.53	19.66	0	0.00	0.00
23:52:55	0	0.00	0.00	334	1630.59	20.14	0	0.00	0.00
23:53:00	0	0.00	0.00	336	1640.35	20.26	0	0.00	0.00
23:53:05	0	0.00	0.00	335	1635.47	20.20	0	0.00	0.00
23:53:10	0	0.00	0.00	339	1655.00	20.44	0	0.00	0.00
23:53:15	0	0.00	0.00	339	1655.00	20.44	0	0.00	0.00
23:53:20	0	0.00	0.00	333	1625.71	20.08	0	0.00	0.00
23:53:25	0	0.00	0.00	333	1625.71	20.08	0	0.00	0.00
23:53:30	0	0.00	0.00	333	1625.71	20.08	0	0.00	0.00
23:53:35	0	0.00	0.00	330	1611.06	19.90	0	0.00	0.00
23:53:40	0	0.00	0.00	268	1308.38	16.16	0	0.00	0.00
23:53:45	0	0.00	0.00	271	1323.02	16.34	0	0.00	0.00
23:53:50	0	0.00	0.00	274	1337.67	16.52	0	0.00	0.00
23:53:55	0	0.00	0.00	271	1323.02	16.34	0	0.00	0.00
23:54:00	0	0.00	0.00	272	1327.90	16.40	0	0.00	0.00
23:54:05	0	0.00	0.00	269	1313.26	16.22	0	0.00	0.00
23:54:10	0	0.00	0.00	271	1323.02	16.34	0	0.00	0.00
23:54:15	0	0.00	0.00	267	1303.49	16.10	0	0.00	0.00
